<?xml version="1.0" encoding="UTF-8" standalone="no"?>
<!DOCTYPE svg PUBLIC "-//W3C//DTD SVG 1.0//EN"
"http://www.w3.org/TR/2001/REC-SVG-20010904/DTD/svg10.dtd" [
<!ATTLIST svg xmlns:xlink CDATA #FIXED "http://www.w3.org/1999/xlink">
]>
<svg xmlns='http://www.w3.org/2000/svg'
xmlns:xlink='http://www.w3.org/1999/xlink'
width='574pt' height='120pt'
viewBox='0.0 0.0 574.0 120.0'
>
<style type='text/css'>
  svg {
    background-color: white;
  }
  text {
    font-family: "Helvetica Neue", Helvetica, Arial, sans-serif;
    font-size: 12px;
  }
</style>
<g>
  <rect x='228' y='40' width='142' height='60' fill='none' stroke='black' />
<text text-anchor='middle' x='299' y='70'>Quality Standards</text>

  <line x1='20' y1='70' x2='228' y2='70' stroke='black' stroke-dasharray='5,5' />
<polygon fill='black' stroke='black' points='228,70 222,73 222,67 228,70' />
<text text-anchor='start' x='25' y='65'>Quality Standards Event</text>

<line x1='370' y1='70' x2='554' y2='70' stroke='black' stroke-dasharray='5,5' />
<polygon fill='black' stroke='black' points='554,70 548,73 548,67 554,70' />
<text text-anchor='end' x='549' y='65'>Quality Rules Event</text>

</g>
</svg>
