<?xml version="1.0" encoding="UTF-8" standalone="no"?>
<!DOCTYPE svg PUBLIC "-//W3C//DTD SVG 1.0//EN"
"http://www.w3.org/TR/2001/REC-SVG-20010904/DTD/svg10.dtd" [
<!ATTLIST svg xmlns:xlink CDATA #FIXED "http://www.w3.org/1999/xlink">
]>
<svg xmlns='http://www.w3.org/2000/svg'
xmlns:xlink='http://www.w3.org/1999/xlink'
width='718pt' height='180pt'
viewBox='0.0 0.0 718.0 180.0'
>
<style type='text/css'>
  svg {
    background-color: white;
  }
  text {
    font-family: "Helvetica Neue", Helvetica, Arial, sans-serif;
    font-size: 12px;
  }
</style>
<g>
  <rect x='270' y='40' width='184' height='60' fill='none' stroke='black' />
<text text-anchor='middle' x='362' y='70'>Metadata Auto Correction</text>

  <line x1='20' y1='70' x2='270' y2='70' stroke='black' stroke-dasharray='5,5' />
<polygon fill='black' stroke='black' points='270,70 264,73 264,67 270,70' />
<text text-anchor='start' x='25' y='65'>Metadata Auto Correction Event</text>

<line x1='454' y1='80' x2='698' y2='80' stroke='black' stroke-dasharray='5,5' />
<polygon fill='black' stroke='black' points='698,80 692,83 692,77 698,80' />
<text text-anchor='end' x='693' y='75'>Process Event</text>

<line x1='454' y1='60' x2='698' y2='60' stroke='black' stroke-dasharray='5,5' />
<polygon fill='black' stroke='black' points='698,60 692,63 692,57 698,60' />
<text text-anchor='end' x='693' y='55'>Metadata Raise Incident Event</text>

<line x1='362' y1='140' x2='362' y2='100' stroke='black' stroke-dasharray='5,5' />
<polygon fill='black' stroke='black' points='362,100 359,106 365,106 362,100' />
<text text-anchor='middle' x='362' y='155'>Automation</text>

</g>
</svg>
