<?xml version="1.0" encoding="UTF-8" standalone="no"?>
<!DOCTYPE svg PUBLIC "-//W3C//DTD SVG 1.0//EN"
"http://www.w3.org/TR/2001/REC-SVG-20010904/DTD/svg10.dtd" [
<!ATTLIST svg xmlns:xlink CDATA #FIXED "http://www.w3.org/1999/xlink">
]>
<svg xmlns='http://www.w3.org/2000/svg'
xmlns:xlink='http://www.w3.org/1999/xlink'
width='13642pt' height='6880pt'
viewBox='0.0 0.0 13642.0 6880.0'
>
<style type='text/css'>
  svg {
    background-color: white;
  }
  text {
    font-family: "Helvetica Neue", Helvetica, Arial, sans-serif;
    font-size: 12px;
  }
</style>
<g>
  <rect x='178' y='60' width='172' height='60' fill='none' stroke='black' />
<text text-anchor='middle' x='264' y='90'>Process Policies Rules</text>

<rect x='410' y='160' width='106' height='60' fill='none' stroke='black' />
<text text-anchor='middle' x='463' y='190'>Data Entity</text>

<rect x='556' y='260' width='124' height='60' fill='none' stroke='black' />
<text text-anchor='middle' x='618' y='290'>Data Attribute</text>

<rect x='720' y='380' width='148' height='60' fill='none' stroke='black' />
<text text-anchor='middle' x='794' y='410'>Data Normalization</text>

<rect x='908' y='480' width='190' height='60' fill='none' stroke='black' />
<text text-anchor='middle' x='1003' y='510'>Data Model Migration Plan</text>

<rect x='1158' y='600' width='154' height='60' fill='none' stroke='black' />
<text text-anchor='middle' x='1235' y='630'>Quality Translation</text>

<rect x='1352' y='700' width='124' height='60' fill='none' stroke='black' />
<text text-anchor='middle' x='1414' y='730'>Change Request</text>

<rect x='1516' y='800' width='172' height='60' fill='none' stroke='black' />
<text text-anchor='middle' x='1602' y='830'>Improvement Activities</text>

<rect x='1728' y='900' width='148' height='60' fill='none' stroke='black' />
<text text-anchor='middle' x='1802' y='930'>Quality Aggregator</text>

<rect x='1916' y='1000' width='154' height='60' fill='none' stroke='black' />
<text text-anchor='middle' x='1993' y='1030'>Data Quality Report</text>

<rect x='2110' y='1100' width='130' height='80' fill='none' stroke='black' />
<text text-anchor='middle' x='2175' y='1140'>Ingress Storage</text>

<rect x='2320' y='1220' width='142' height='60' fill='none' stroke='black' />
<text text-anchor='middle' x='2391' y='1250'>Common Data Model</text>

<rect x='2662' y='1320' width='166' height='60' fill='none' stroke='black' />
<text text-anchor='middle' x='2745' y='1350'>Business Intelligence</text>

<rect x='2848' y='1420' width='94' height='60' fill='none' stroke='black' />
<text text-anchor='middle' x='2895' y='1450'>Dashboard</text>

<rect x='2962' y='1520' width='166' height='60' fill='none' stroke='black' />
<text text-anchor='middle' x='3045' y='1550'>Data Confusion Matrix</text>

<rect x='3168' y='1620' width='154' height='60' fill='none' stroke='black' />
<text text-anchor='middle' x='3245' y='1650'>Feature Engineering</text>

<rect x='3402' y='1720' width='184' height='60' fill='none' stroke='black' />
<text text-anchor='middle' x='3494' y='1750'>Dimensionality Reduction</text>

<rect x='3646' y='1820' width='106' height='60' fill='none' stroke='black' />
<text text-anchor='middle' x='3699' y='1850'>Ingress BAR</text>

<rect x='3812' y='1920' width='130' height='60' fill='none' stroke='black' />
<text text-anchor='middle' x='3877' y='1950'>Data Assessment</text>

<rect x='4042' y='2020' width='76' height='60' fill='none' stroke='black' />
<text text-anchor='middle' x='4080' y='2050'>Egress</text>

<rect x='4178' y='2120' width='106' height='100' fill='none' stroke='black' />
<text text-anchor='middle' x='4231' y='2170'>Stage Unity</text>

<rect x='4504' y='2260' width='166' height='80' fill='none' stroke='black' />
<text text-anchor='middle' x='4587' y='2300'>Metadata Log Analysis</text>

<rect x='4770' y='2380' width='226' height='60' fill='none' stroke='black' />
<text text-anchor='middle' x='4883' y='2410'>Metadata Process Quality Report</text>

<rect x='5036' y='2480' width='256' height='60' fill='none' stroke='black' />
<text text-anchor='middle' x='5164' y='2510'>Process Compliance Efficiency Report</text>

<rect x='5332' y='2580' width='184' height='60' fill='none' stroke='black' />
<text text-anchor='middle' x='5424' y='2610'>Metadata Auto Correction</text>

<rect x='5576' y='2680' width='184' height='60' fill='none' stroke='black' />
<text text-anchor='middle' x='5668' y='2710'>Metadata Raised Incident</text>

<rect x='5860' y='2780' width='262' height='80' fill='none' stroke='black' />
<text text-anchor='middle' x='5991' y='2820'>Transformation Integration Validation</text>

<rect x='6282' y='2900' width='196' height='80' fill='none' stroke='black' />
<text text-anchor='middle' x='6380' y='2940'>Architect Design Authority</text>

<rect x='6558' y='3040' width='172' height='80' fill='none' stroke='black' />
<text text-anchor='middle' x='6644' y='3080'>Ingress Classification</text>

<rect x='6810' y='3160' width='178' height='60' fill='none' stroke='black' />
<text text-anchor='middle' x='6899' y='3190'>Ingress File Type Check</text>

<rect x='7048' y='3260' width='130' height='60' fill='none' stroke='black' />
<text text-anchor='middle' x='7113' y='3290'>Ingress Parsing</text>

<rect x='7218' y='3360' width='142' height='80' fill='none' stroke='black' />
<text text-anchor='middle' x='7289' y='3400'>Ingress Interface</text>

<rect x='7500' y='3480' width='124' height='80' fill='none' stroke='black' />
<text text-anchor='middle' x='7562' y='3520'>Ingress Fields</text>

<rect x='7764' y='3600' width='196' height='100' fill='none' stroke='black' />
<text text-anchor='middle' x='7862' y='3650'>Transformation Integration</text>

<rect x='8160' y='3740' width='226' height='100' fill='none' stroke='black' />
<text text-anchor='middle' x='8273' y='3790'>Transformation Data Restructure</text>

<rect x='8626' y='3900' width='160' height='100' fill='none' stroke='black' />
<text text-anchor='middle' x='8706' y='3950'>Stage Data Profiling</text>

<rect x='9006' y='4080' width='172' height='120' fill='none' stroke='black' />
<text text-anchor='middle' x='9092' y='4140'>Transformation History</text>

<rect x='9398' y='4240' width='148' height='80' fill='none' stroke='black' />
<text text-anchor='middle' x='9472' y='4280'>History Management</text>

<rect x='9606' y='4380' width='178' height='120' fill='none' stroke='black' />
<text text-anchor='middle' x='9695' y='4440'>Stage Domain Validation</text>

<rect x='10064' y='4560' width='220' height='120' fill='none' stroke='black' />
<text text-anchor='middle' x='10174' y='4620'>Stage Business Rule Validation</text>

<rect x='10544' y='4740' width='94' height='60' fill='none' stroke='black' />
<text text-anchor='middle' x='10591' y='4770'>Rejection</text>

<rect x='10678' y='4840' width='190' height='100' fill='none' stroke='black' />
<text text-anchor='middle' x='10773' y='4890'>Strategic Data Management</text>

<rect x='10928' y='5020' width='160' height='140' fill='none' stroke='black' />
<text text-anchor='middle' x='11008' y='5090'>Ingress Sanitization</text>

<rect x='11308' y='5220' width='106' height='100' fill='none' stroke='black' />
<text text-anchor='middle' x='11361' y='5270'>Data Facets</text>

<rect x='11474' y='5400' width='136' height='60' fill='none' stroke='black' />
<text text-anchor='middle' x='11542' y='5430'>Quality Recorder</text>

<rect x='11670' y='5520' width='178' height='60' fill='none' stroke='black' />
<text text-anchor='middle' x='11759' y='5550'>Exception Investigation</text>

<rect x='11888' y='5640' width='154' height='100' fill='none' stroke='black' />
<text text-anchor='middle' x='11965' y='5690'>Business Definition</text>

<rect x='12122' y='5780' width='142' height='60' fill='none' stroke='black' />
<text text-anchor='middle' x='12193' y='5810'>Quality Standards</text>

<rect x='12304' y='5880' width='130' height='60' fill='none' stroke='black' />
<text text-anchor='middle' x='12369' y='5910'>Technical Rules</text>

<rect x='12474' y='5980' width='142' height='60' fill='none' stroke='black' />
<text text-anchor='middle' x='12545' y='6010'>Domain Vocabulary</text>

<rect x='12656' y='6080' width='100' height='80' fill='none' stroke='black' />
<text text-anchor='middle' x='12706' y='6120'>Stage Data</text>

<rect x='12896' y='6240' width='136' height='60' fill='none' stroke='black' />
<text text-anchor='middle' x='12964' y='6270'>Static Reporting</text>

<rect x='13072' y='6340' width='160' height='100' fill='none' stroke='black' />
<text text-anchor='middle' x='13152' y='6390'>Time Series Forecast</text>

<rect x='13292' y='6480' width='130' height='300' fill='none' stroke='black' />
<text text-anchor='middle' x='13357' y='6630'>Metadata Logger</text>

  <path stroke='black' fill='none' d='M 1098 510 L 1108 510 C 1113 510 1118 515 1118 520 L 1118 550 C 1118 555 1113 560 1108 560 L 168 560 C 163 560 158 555 158 550 L 158 110 C 158 105 163 100 168 100 L 178 100' />
<polygon fill='black' stroke='black' points='178,100 172,103 172,97 178,100' />
<text text-anchor='start' x='168' y='555'>Model DDL</text>

<path stroke='black' fill='none' d='M 6478 2960 L 6488 2960 C 6493 2960 6498 2965 6498 2970 L 6498 2990 C 6498 2995 6493 3000 6488 3000 L 148 3000 C 143 3000 138 2995 138 2990 L 138 90 C 138 85 143 80 148 80 L 178 80' />
<polygon fill='black' stroke='black' points='178,80 172,83 172,77 178,80' />
<text text-anchor='start' x='148' y='2995'>Policy Accepted Event</text>

<path stroke='black' fill='none' d='M 350 90 L 453 90 C 458 90 463 95 463 100 L 463 160' />
<polygon fill='black' stroke='black' points='463,160 460,154 466,154 463,160' />
<text text-anchor='start' x='355' y='85'>Business Quality Rules Data</text>

<path stroke='black' fill='none' d='M 11414 5270 L 11444 5270 C 11449 5270 11454 5275 11454 5280 L 11454 5350 C 11454 5355 11449 5360 11444 5360 L 400 5360 C 395 5360 390 5355 390 5350 L 390 200 C 390 195 395 190 400 190 L 410 190' />
<polygon fill='black' stroke='black' points='410,190 404,193 404,187 410,190' />
<text text-anchor='start' x='400' y='5355'>Data Facet Model</text>

<path stroke='black' fill='none' d='M 350 90 L 608 90 C 613 90 618 95 618 100 L 618 260' />
<polygon fill='black' stroke='black' points='618,260 615,254 621,254 618,260' />
<text text-anchor='start' x='355' y='85'>Business Quality Rules Data</text>

<path stroke='black' fill='none' d='M 516 190 L 526 190 C 531 190 536 195 536 200 L 536 280 C 536 285 541 290 546 290 L 556 290' />
<polygon fill='black' stroke='black' points='556,290 550,293 550,287 556,290' />
<text text-anchor='start' x='521' y='185'>Data Entity Model</text>

<path stroke='black' fill='none' d='M 350 90 L 774 90 C 779 90 784 95 784 100 L 784 380' />
<polygon fill='black' stroke='black' points='784,380 781,374 787,374 784,380' />
<text text-anchor='start' x='355' y='85'>Business Quality Rules Data</text>

<path stroke='black' fill='none' d='M 680 290 L 690 290 C 695 290 700 295 700 300 L 700 400 C 700 405 705 410 710 410 L 720 410' />
<polygon fill='black' stroke='black' points='720,410 714,413 714,407 720,410' />
<text text-anchor='start' x='685' y='285'>Data Attribute Model</text>

<path stroke='black' fill='none' d='M 3128 1540 L 3138 1540 C 3143 1540 3148 1535 3148 1530 L 3148 370 C 3148 365 3143 360 3138 360 L 814 360 C 809 360 804 365 804 370 L 804 380' />
<polygon fill='black' stroke='black' points='804,380 801,374 807,374 804,380' />
<text text-anchor='end' x='3138' y='375'>Approved Integration Event</text>

<path stroke='black' fill='none' d='M 350 90 L 993 90 C 998 90 1003 95 1003 100 L 1003 480' />
<polygon fill='black' stroke='black' points='1003,480 1000,474 1006,474 1003,480' />
<text text-anchor='start' x='355' y='85'>Business Quality Rules Data</text>

<path stroke='black' fill='none' d='M 868 410 L 878 410 C 883 410 888 415 888 420 L 888 500 C 888 505 893 510 898 510 L 908 510' />
<polygon fill='black' stroke='black' points='908,510 902,513 902,507 908,510' />
<text text-anchor='start' x='873' y='405'>Business Data Model</text>

<path stroke='black' fill='none' d='M 350 90 L 380 90 C 385 90 390 95 390 100 L 390 630 C 390 635 395 640 400 640 L 1158 640' />
<polygon fill='black' stroke='black' points='1158,640 1152,643 1152,637 1158,640' />
<text text-anchor='start' x='355' y='85'>Business Quality Rules Data</text>

<path stroke='black' fill='none' d='M 1098 510 L 1128 510 C 1133 510 1138 515 1138 520 L 1138 610 C 1138 615 1143 620 1148 620 L 1158 620' />
<polygon fill='black' stroke='black' points='1158,620 1152,623 1152,617 1158,620' />
<text text-anchor='start' x='1103' y='505'>Model DDL</text>

<path stroke='black' fill='none' d='M 10868 4880 L 10898 4880 C 10903 4880 10908 4885 10908 4890 L 10908 4970 C 10908 4975 10903 4980 10898 4980 L 1342 4980 C 1337 4980 1332 4975 1332 4970 L 1332 740 C 1332 735 1337 730 1342 730 L 1352 730' />
<polygon fill='black' stroke='black' points='1352,730 1346,733 1346,727 1352,730' />
<text text-anchor='start' x='1342' y='4975'>Change Request Event</text>

<path stroke='black' fill='none' d='M 10868 4900 L 10878 4900 C 10883 4900 10888 4905 10888 4910 L 10888 4950 C 10888 4955 10883 4960 10878 4960 L 1506 4960 C 1501 4960 1496 4955 1496 4950 L 1496 840 C 1496 835 1501 830 1506 830 L 1516 830' />
<polygon fill='black' stroke='black' points='1516,830 1510,833 1510,827 1516,830' />
<text text-anchor='start' x='1506' y='4955'>Improvement Activities Event</text>

<path stroke='black' fill='none' d='M 11610 5430 L 11620 5430 C 11625 5430 11630 5435 11630 5440 L 11630 5470 C 11630 5475 11625 5480 11620 5480 L 1718 5480 C 1713 5480 1708 5475 1708 5470 L 1708 940 C 1708 935 1713 930 1718 930 L 1728 930' />
<polygon fill='black' stroke='black' points='1728,930 1722,933 1722,927 1728,930' />
<text text-anchor='start' x='1718' y='5475'>Quality Recorder Event</text>

<path stroke='black' fill='none' d='M 1876 930 L 1886 930 C 1891 930 1896 935 1896 940 L 1896 1020 C 1896 1025 1901 1030 1906 1030 L 1916 1030' />
<polygon fill='black' stroke='black' points='1916,1030 1910,1033 1910,1027 1916,1030' />
<text text-anchor='start' x='1881' y='925'>Quality Report Data</text>

<path stroke='black' fill='none' d='M 11848 5550 L 11858 5550 C 11863 5550 11868 5555 11868 5560 L 11868 5590 C 11868 5595 11863 5600 11858 5600 L 1906 5600 C 1901 5600 1896 5595 1896 5590 L 1896 1040 C 1896 1035 1901 1030 1906 1030 L 1916 1030' />
<polygon fill='black' stroke='black' points='1916,1030 1910,1033 1910,1027 1916,1030' />
<text text-anchor='start' x='1906' y='5595'>Quality Report Data</text>

<path stroke='black' fill='none' d='M 1098 510 L 2381 510 C 2386 510 2391 515 2391 520 L 2391 1220' />
<polygon fill='black' stroke='black' points='2391,1220 2388,1214 2394,1214 2391,1220' />
<text text-anchor='start' x='1103' y='505'>Model DDL</text>

<path stroke='black' fill='none' d='M 8386 3760 L 8396 3760 C 8401 3760 8406 3765 8406 3770 L 8406 3850 C 8406 3855 8401 3860 8396 3860 L 2310 3860 C 2305 3860 2300 3855 2300 3850 L 2300 1270 C 2300 1265 2305 1260 2310 1260 L 2320 1260' />
<polygon fill='black' stroke='black' points='2320,1260 2314,1263 2314,1257 2320,1260' />
<text text-anchor='start' x='2310' y='3855'>Transformation Data Restructure Completed Event</text>

<path stroke='black' fill='none' d='M 9546 4290 L 9556 4290 C 9561 4290 9566 4295 9566 4300 L 9566 4330 C 9566 4335 9561 4340 9556 4340 L 2290 4340 C 2285 4340 2280 4335 2280 4330 L 2280 1250 C 2280 1245 2285 1240 2290 1240 L 2320 1240' />
<polygon fill='black' stroke='black' points='2320,1240 2314,1243 2314,1237 2320,1240' />
<text text-anchor='start' x='2290' y='4335'>Update Delete Insert Data</text>

<path stroke='black' fill='none' d='M 2462 1240 L 2632 1240 C 2637 1240 2642 1245 2642 1250 L 2642 1340 C 2642 1345 2647 1350 2652 1350 L 2662 1350' />
<polygon fill='black' stroke='black' points='2662,1350 2656,1353 2656,1347 2662,1350' />
<text text-anchor='start' x='2467' y='1235'>Refresh Data Event</text>

<path stroke='black' fill='none' d='M 2462 1240 L 2612 1240 C 2617 1240 2622 1245 2622 1250 L 2622 1440 C 2622 1445 2627 1450 2632 1450 L 2848 1450' />
<polygon fill='black' stroke='black' points='2848,1450 2842,1453 2842,1447 2848,1450' />
<text text-anchor='start' x='2467' y='1235'>Refresh Data Event</text>

<path stroke='black' fill='none' d='M 350 90 L 3035 90 C 3040 90 3045 95 3045 100 L 3045 1520' />
<polygon fill='black' stroke='black' points='3045,1520 3042,1514 3048,1514 3045,1520' />
<text text-anchor='start' x='355' y='85'>Business Quality Rules Data</text>

<path stroke='black' fill='none' d='M 11414 5270 L 11424 5270 C 11429 5270 11434 5275 11434 5280 L 11434 5330 C 11434 5335 11429 5340 11424 5340 L 2952 5340 C 2947 5340 2942 5335 2942 5330 L 2942 1560 C 2942 1555 2947 1550 2952 1550 L 2962 1550' />
<polygon fill='black' stroke='black' points='2962,1550 2956,1553 2956,1547 2962,1550' />
<text text-anchor='start' x='2952' y='5335'>Data Facet Model</text>

<path stroke='black' fill='none' d='M 2462 1240 L 2592 1240 C 2597 1240 2602 1245 2602 1250 L 2602 1640 C 2602 1645 2607 1650 2612 1650 L 3168 1650' />
<polygon fill='black' stroke='black' points='3168,1650 3162,1653 3162,1647 3168,1650' />
<text text-anchor='start' x='2467' y='1235'>Refresh Data Event</text>

<path stroke='black' fill='none' d='M 2462 1240 L 2572 1240 C 2577 1240 2582 1245 2582 1250 L 2582 1750 C 2582 1755 2587 1760 2592 1760 L 3402 1760' />
<polygon fill='black' stroke='black' points='3402,1760 3396,1763 3396,1757 3402,1760' />
<text text-anchor='start' x='2467' y='1235'>Refresh Data Event</text>

<path stroke='black' fill='none' d='M 3322 1640 L 3372 1640 C 3377 1640 3382 1645 3382 1650 L 3382 1730 C 3382 1735 3387 1740 3392 1740 L 3402 1740' />
<polygon fill='black' stroke='black' points='3402,1740 3396,1743 3396,1737 3402,1740' />
<text text-anchor='start' x='3327' y='1635'>Engineered Variables Event</text>

<path stroke='black' fill='none' d='M 11088 5140 L 11098 5140 C 11103 5140 11108 5145 11108 5150 L 11108 5170 C 11108 5175 11103 5180 11098 5180 L 3636 5180 C 3631 5180 3626 5175 3626 5170 L 3626 1860 C 3626 1855 3631 1850 3636 1850 L 3646 1850' />
<polygon fill='black' stroke='black' points='3646,1850 3640,1853 3640,1847 3646,1850' />
<text text-anchor='start' x='3636' y='5175'>Ingress Data Backup Event</text>

<path stroke='black' fill='none' d='M 2462 1240 L 2552 1240 C 2557 1240 2562 1245 2562 1250 L 2562 1940 C 2562 1945 2567 1950 2572 1950 L 3812 1950' />
<polygon fill='black' stroke='black' points='3812,1950 3806,1953 3806,1947 3812,1950' />
<text text-anchor='start' x='2467' y='1235'>Refresh Data Event</text>

<path stroke='black' fill='none' d='M 2462 1240 L 2532 1240 C 2537 1240 2542 1245 2542 1250 L 2542 2040 C 2542 2045 2547 2050 2552 2050 L 4042 2050' />
<polygon fill='black' stroke='black' points='4042,2050 4036,2053 4036,2047 4042,2050' />
<text text-anchor='start' x='2467' y='1235'>Refresh Data Event</text>

<path stroke='black' fill='none' d='M 8786 3920 L 8816 3920 C 8821 3920 8826 3925 8826 3930 L 8826 4030 C 8826 4035 8821 4040 8816 4040 L 4168 4040 C 4163 4040 4158 4035 4158 4030 L 4158 2210 C 4158 2205 4163 2200 4168 2200 L 4178 2200' />
<polygon fill='black' stroke='black' points='4178,2200 4172,2203 4172,2197 4178,2200' />
<text text-anchor='start' x='4168' y='4035'>Stage Data Profiling Completed Event</text>

<path stroke='black' fill='none' d='M 9784 4400 L 9794 4400 C 9799 4400 9804 4405 9804 4410 L 9804 4510 C 9804 4515 9799 4520 9794 4520 L 4148 4520 C 4143 4520 4138 4515 4138 4510 L 4138 2190 C 4138 2185 4143 2180 4148 2180 L 4178 2180' />
<polygon fill='black' stroke='black' points='4178,2180 4172,2183 4172,2177 4178,2180' />
<text text-anchor='start' x='4148' y='4515'>Stage Domain Validation Completed Event</text>

<path stroke='black' fill='none' d='M 10284 4660 L 10294 4660 C 10299 4660 10304 4665 10304 4670 L 10304 4690 C 10304 4695 10299 4700 10294 4700 L 4128 4700 C 4123 4700 4118 4695 4118 4690 L 4118 2170 C 4118 2165 4123 2160 4128 2160 L 4178 2160' />
<polygon fill='black' stroke='black' points='4178,2160 4172,2163 4172,2157 4178,2160' />
<text text-anchor='start' x='4128' y='4695'>Stage Business Rule Validation Completed Event</text>

<path stroke='black' fill='none' d='M 12756 6140 L 12786 6140 C 12791 6140 12796 6145 12796 6150 L 12796 6190 C 12796 6195 12791 6200 12786 6200 L 4108 6200 C 4103 6200 4098 6195 4098 6190 L 4098 2150 C 4098 2145 4103 2140 4108 2140 L 4178 2140' />
<polygon fill='black' stroke='black' points='4178,2140 4172,2143 4172,2137 4178,2140' />
<text text-anchor='start' x='4108' y='6195'>Stage Data Completed Event</text>

<path stroke='black' fill='none' d='M 13422 6630 L 13432 6630 C 13437 6630 13442 6635 13442 6640 L 13442 6790 C 13442 6795 13437 6800 13432 6800 L 4494 6800 C 4489 6800 4484 6795 4484 6790 L 4484 2310 C 4484 2305 4489 2300 4494 2300 L 4504 2300' />
<polygon fill='black' stroke='black' points='4504,2300 4498,2303 4498,2297 4504,2300' />
<text text-anchor='start' x='4494' y='6795'>Metadata Daily Log Event</text>

<path stroke='black' fill='none' d='M 4670 2280 L 4740 2280 C 4745 2280 4750 2285 4750 2290 L 4750 2400 C 4750 2405 4755 2410 4760 2410 L 4770 2410' />
<polygon fill='black' stroke='black' points='4770,2410 4764,2413 4764,2407 4770,2410' />
<text text-anchor='start' x='4675' y='2275'>Process Quality Report Event</text>

<path stroke='black' fill='none' d='M 4670 2280 L 4720 2280 C 4725 2280 4730 2285 4730 2290 L 4730 2510 C 4730 2515 4735 2520 4740 2520 L 5036 2520' />
<polygon fill='black' stroke='black' points='5036,2520 5030,2523 5030,2517 5036,2520' />
<text text-anchor='start' x='4675' y='2275'>Process Quality Report Event</text>

<path stroke='black' fill='none' d='M 4996 2410 L 5006 2410 C 5011 2410 5016 2415 5016 2420 L 5016 2490 C 5016 2495 5021 2500 5026 2500 L 5036 2500' />
<polygon fill='black' stroke='black' points='5036,2500 5030,2503 5030,2497 5036,2500' />
<text text-anchor='start' x='5001' y='2405'>Process Report Data</text>

<path stroke='black' fill='none' d='M 4670 2300 L 4700 2300 C 4705 2300 4710 2305 4710 2310 L 4710 2600 C 4710 2605 4715 2610 4720 2610 L 5332 2610' />
<polygon fill='black' stroke='black' points='5332,2610 5326,2613 5326,2607 5332,2610' />
<text text-anchor='start' x='4675' y='2295'>Metadata Auto Correction Event</text>

<path stroke='black' fill='none' d='M 4670 2320 L 4680 2320 C 4685 2320 4690 2325 4690 2330 L 4690 2700 C 4690 2705 4695 2710 4700 2710 L 5576 2710' />
<polygon fill='black' stroke='black' points='5576,2710 5570,2713 5570,2707 5576,2710' />
<text text-anchor='start' x='4675' y='2315'>Metadata Raise Incident Event</text>

<path stroke='black' fill='none' d='M 5516 2600 L 5546 2600 C 5551 2600 5556 2605 5556 2610 L 5556 2700 C 5556 2705 5561 2710 5566 2710 L 5576 2710' />
<polygon fill='black' stroke='black' points='5576,2710 5570,2713 5570,2707 5576,2710' />
<text text-anchor='start' x='5521' y='2595'>Metadata Raise Incident Event</text>

<path stroke='black' fill='none' d='M 4284 2170 L 4454 2170 C 4459 2170 4464 2175 4464 2180 L 4464 2830 C 4464 2835 4469 2840 4474 2840 L 5860 2840' />
<polygon fill='black' stroke='black' points='5860,2840 5854,2843 5854,2837 5860,2840' />
<text text-anchor='start' x='4289' y='2165'>Stage Completed Event</text>

<path stroke='black' fill='none' d='M 4284 2150 L 4474 2150 C 4479 2150 4484 2155 4484 2160 L 4484 2810 C 4484 2815 4489 2820 4494 2820 L 5860 2820' />
<polygon fill='black' stroke='black' points='5860,2820 5854,2823 5854,2817 5860,2820' />
<text text-anchor='start' x='4289' y='2145'>Stage Classified Data</text>

<path stroke='black' fill='none' d='M 8786 3920 L 8796 3920 C 8801 3920 8806 3925 8806 3930 L 8806 4010 C 8806 4015 8801 4020 8796 4020 L 5850 4020 C 5845 4020 5840 4015 5840 4010 L 5840 2810 C 5840 2805 5845 2800 5850 2800 L 5860 2800' />
<polygon fill='black' stroke='black' points='5860,2800 5854,2803 5854,2797 5860,2800' />
<text text-anchor='start' x='5850' y='4015'>Stage Data Profiling Completed Event</text>

<path stroke='black' fill='none' d='M 1476 730 L 1486 730 C 1491 730 1496 735 1496 740 L 1496 2940 C 1496 2945 1501 2950 1506 2950 L 6282 2950' />
<polygon fill='black' stroke='black' points='6282,2950 6276,2953 6276,2947 6282,2950' />
<text text-anchor='start' x='1481' y='725'>Change Request Feasibility Event</text>

<path stroke='black' fill='none' d='M 1688 830 L 1698 830 C 1703 830 1708 835 1708 840 L 1708 2920 C 1708 2925 1713 2930 1718 2930 L 6282 2930' />
<polygon fill='black' stroke='black' points='6282,2930 6276,2933 6276,2927 6282,2930' />
<text text-anchor='start' x='1693' y='825'>Improvement Activities Feasibility Event</text>

<path stroke='black' fill='none' d='M 2240 1130 L 2290 1130 C 2295 1130 2300 1135 2300 1140 L 2300 3070 C 2300 3075 2305 3080 2310 3080 L 6558 3080' />
<polygon fill='black' stroke='black' points='6558,3080 6552,3083 6552,3077 6558,3080' />
<text text-anchor='start' x='2245' y='1125'>Data Files Reference Event</text>

<path stroke='black' fill='none' d='M 6730 3060 L 6780 3060 C 6785 3060 6790 3065 6790 3070 L 6790 3180 C 6790 3185 6795 3190 6800 3190 L 6810 3190' />
<polygon fill='black' stroke='black' points='6810,3190 6804,3193 6804,3187 6810,3190' />
<text text-anchor='start' x='6735' y='3055'>Ingress Classification Failed Event</text>

<path stroke='black' fill='none' d='M 6988 3180 L 7018 3180 C 7023 3180 7028 3185 7028 3190 L 7028 3280 C 7028 3285 7033 3290 7038 3290 L 7048 3290' />
<polygon fill='black' stroke='black' points='7048,3290 7042,3293 7042,3287 7048,3290' />
<text text-anchor='start' x='6993' y='3175'>File Type Event</text>

<path stroke='black' fill='none' d='M 6730 3080 L 6760 3080 C 6765 3080 6770 3085 6770 3090 L 6770 3400 C 6770 3405 6775 3410 6780 3410 L 7218 3410' />
<polygon fill='black' stroke='black' points='7218,3410 7212,3413 7212,3407 7218,3410' />
<text text-anchor='start' x='6735' y='3075'>Successful Classification Event</text>

<path stroke='black' fill='none' d='M 7178 3290 L 7188 3290 C 7193 3290 7198 3295 7198 3300 L 7198 3380 C 7198 3385 7203 3390 7208 3390 L 7218 3390' />
<polygon fill='black' stroke='black' points='7218,3390 7212,3393 7212,3387 7218,3390' />
<text text-anchor='start' x='7183' y='3285'>Ingress Interface Found Event</text>

<path stroke='black' fill='none' d='M 7360 3380 L 7470 3380 C 7475 3380 7480 3385 7480 3390 L 7480 3510 C 7480 3515 7485 3520 7490 3520 L 7500 3520' />
<polygon fill='black' stroke='black' points='7500,3520 7494,3523 7494,3517 7500,3520' />
<text text-anchor='start' x='7365' y='3375'>Successful Interface Event</text>

<path stroke='black' fill='none' d='M 4284 2150 L 4434 2150 C 4439 2150 4444 2155 4444 2160 L 4444 3650 C 4444 3655 4449 3660 4454 3660 L 7764 3660' />
<polygon fill='black' stroke='black' points='7764,3660 7758,3663 7758,3657 7764,3660' />
<text text-anchor='start' x='4289' y='2145'>Stage Classified Data</text>

<path stroke='black' fill='none' d='M 6122 2800 L 6252 2800 C 6257 2800 6262 2805 6262 2810 L 6262 3630 C 6262 3635 6267 3640 6272 3640 L 7764 3640' />
<polygon fill='black' stroke='black' points='7764,3640 7758,3643 7758,3637 7764,3640' />
<text text-anchor='start' x='6127' y='2795'>Transformation Integration Validation Completed Event</text>

<path stroke='black' fill='none' d='M 1098 510 L 8263 510 C 8268 510 8273 515 8273 520 L 8273 3740' />
<polygon fill='black' stroke='black' points='8273,3740 8270,3734 8276,3734 8273,3740' />
<text text-anchor='start' x='1103' y='505'>Model DDL</text>

<path stroke='black' fill='none' d='M 4284 2150 L 4414 2150 C 4419 2150 4424 2155 4424 2160 L 4424 3790 C 4424 3795 4429 3800 4434 3800 L 8160 3800' />
<polygon fill='black' stroke='black' points='8160,3800 8154,3803 8154,3797 8160,3800' />
<text text-anchor='start' x='4289' y='2145'>Stage Classified Data</text>

<path stroke='black' fill='none' d='M 7960 3620 L 8130 3620 C 8135 3620 8140 3625 8140 3630 L 8140 3770 C 8140 3775 8145 3780 8150 3780 L 8160 3780' />
<polygon fill='black' stroke='black' points='8160,3780 8154,3783 8154,3777 8160,3780' />
<text text-anchor='start' x='7965' y='3615'>Transformation Integration Completed Event</text>

<path stroke='black' fill='none' d='M 12756 6140 L 12766 6140 C 12771 6140 12776 6145 12776 6150 L 12776 6170 C 12776 6175 12771 6180 12766 6180 L 8616 6180 C 8611 6180 8606 6175 8606 6170 L 8606 3960 C 8606 3955 8611 3950 8616 3950 L 8626 3950' />
<polygon fill='black' stroke='black' points='8626,3950 8620,3953 8620,3947 8626,3950' />
<text text-anchor='start' x='8616' y='6175'>Stage Data Completed Event</text>

<path stroke='black' fill='none' d='M 4284 2150 L 4394 2150 C 4399 2150 4404 2155 4404 2160 L 4404 4140 C 4404 4145 4409 4150 4414 4150 L 9006 4150' />
<polygon fill='black' stroke='black' points='9006,4150 9000,4153 9000,4147 9006,4150' />
<text text-anchor='start' x='4289' y='2145'>Stage Classified Data</text>

<path stroke='black' fill='none' d='M 8386 3760 L 8596 3760 C 8601 3760 8606 3765 8606 3770 L 8606 4120 C 8606 4125 8611 4130 8616 4130 L 9006 4130' />
<polygon fill='black' stroke='black' points='9006,4130 9000,4133 9000,4127 9006,4130' />
<text text-anchor='start' x='8391' y='3755'>Transformation Data Restructure Completed Event</text>

<path stroke='black' fill='none' d='M 1098 510 L 9462 510 C 9467 510 9472 515 9472 520 L 9472 4240' />
<polygon fill='black' stroke='black' points='9472,4240 9469,4234 9475,4234 9472,4240' />
<text text-anchor='start' x='1103' y='505'>Model DDL</text>

<path stroke='black' fill='none' d='M 8386 3760 L 8576 3760 C 8581 3760 8586 3765 8586 3770 L 8586 4290 C 8586 4295 8591 4300 8596 4300 L 9398 4300' />
<polygon fill='black' stroke='black' points='9398,4300 9392,4303 9392,4297 9398,4300' />
<text text-anchor='start' x='8391' y='3755'>Transformation Data Restructure Completed Event</text>

<path stroke='black' fill='none' d='M 9178 4100 L 9368 4100 C 9373 4100 9378 4105 9378 4110 L 9378 4250 C 9378 4255 9383 4260 9388 4260 L 9398 4260' />
<polygon fill='black' stroke='black' points='9398,4260 9392,4263 9392,4257 9398,4260' />
<text text-anchor='start' x='9183' y='4095'>Transformed Completed Event</text>

<path stroke='black' fill='none' d='M 9178 4120 L 9348 4120 C 9353 4120 9358 4125 9358 4130 L 9358 4270 C 9358 4275 9363 4280 9368 4280 L 9398 4280' />
<polygon fill='black' stroke='black' points='9398,4280 9392,4283 9392,4277 9398,4280' />
<text text-anchor='start' x='9183' y='4115'>Transformed Data</text>

<path stroke='black' fill='none' d='M 8786 3920 L 8976 3920 C 8981 3920 8986 3925 8986 3930 L 8986 4430 C 8986 4435 8991 4440 8996 4440 L 9606 4440' />
<polygon fill='black' stroke='black' points='9606,4440 9600,4443 9600,4437 9606,4440' />
<text text-anchor='start' x='8791' y='3915'>Stage Data Profiling Completed Event</text>

<path stroke='black' fill='none' d='M 9784 4400 L 10034 4400 C 10039 4400 10044 4405 10044 4410 L 10044 4610 C 10044 4615 10049 4620 10054 4620 L 10064 4620' />
<polygon fill='black' stroke='black' points='10064,4620 10058,4623 10058,4617 10064,4620' />
<text text-anchor='start' x='9789' y='4395'>Stage Domain Validation Completed Event</text>

<path stroke='black' fill='none' d='M 4284 2190 L 4374 2190 C 4379 2190 4384 2195 4384 2200 L 4384 4760 C 4384 4765 4389 4770 4394 4770 L 10544 4770' />
<polygon fill='black' stroke='black' points='10544,4770 10538,4773 10538,4767 10544,4770' />
<text text-anchor='start' x='4289' y='2185'>Quality Exception Event</text>

<path stroke='black' fill='none' d='M 5760 2710 L 5830 2710 C 5835 2710 5840 2715 5840 2720 L 5840 4760 C 5840 4765 5845 4770 5850 4770 L 10544 4770' />
<polygon fill='black' stroke='black' points='10544,4770 10538,4773 10538,4767 10544,4770' />
<text text-anchor='start' x='5765' y='2705'>Quality Exception Event</text>

<path stroke='black' fill='none' d='M 6122 2820 L 6232 2820 C 6237 2820 6242 2825 6242 2830 L 6242 4760 C 6242 4765 6247 4770 6252 4770 L 10544 4770' />
<polygon fill='black' stroke='black' points='10544,4770 10538,4773 10538,4767 10544,4770' />
<text text-anchor='start' x='6127' y='2815'>Quality Exception Event</text>

<path stroke='black' fill='none' d='M 7360 3400 L 7450 3400 C 7455 3400 7460 3405 7460 3410 L 7460 4760 C 7460 4765 7465 4770 7470 4770 L 10544 4770' />
<polygon fill='black' stroke='black' points='10544,4770 10538,4773 10538,4767 10544,4770' />
<text text-anchor='start' x='7365' y='3395'>Quality Exception Event</text>

<path stroke='black' fill='none' d='M 7624 3500 L 7734 3500 C 7739 3500 7744 3505 7744 3510 L 7744 4760 C 7744 4765 7749 4770 7754 4770 L 10544 4770' />
<polygon fill='black' stroke='black' points='10544,4770 10538,4773 10538,4767 10544,4770' />
<text text-anchor='start' x='7629' y='3495'>Quality Exception Event</text>

<path stroke='black' fill='none' d='M 7960 3640 L 8110 3640 C 8115 3640 8120 3645 8120 3650 L 8120 4760 C 8120 4765 8125 4770 8130 4770 L 10544 4770' />
<polygon fill='black' stroke='black' points='10544,4770 10538,4773 10538,4767 10544,4770' />
<text text-anchor='start' x='7965' y='3635'>Quality Exception Event</text>

<path stroke='black' fill='none' d='M 8386 3780 L 8556 3780 C 8561 3780 8566 3785 8566 3790 L 8566 4760 C 8566 4765 8571 4770 8576 4770 L 10544 4770' />
<polygon fill='black' stroke='black' points='10544,4770 10538,4773 10538,4767 10544,4770' />
<text text-anchor='start' x='8391' y='3775'>Quality Exception Event</text>

<path stroke='black' fill='none' d='M 9178 4140 L 9328 4140 C 9333 4140 9338 4145 9338 4150 L 9338 4760 C 9338 4765 9343 4770 9348 4770 L 10544 4770' />
<polygon fill='black' stroke='black' points='10544,4770 10538,4773 10538,4767 10544,4770' />
<text text-anchor='start' x='9183' y='4135'>Quality Exception Event</text>

<path stroke='black' fill='none' d='M 9784 4420 L 10014 4420 C 10019 4420 10024 4425 10024 4430 L 10024 4760 C 10024 4765 10029 4770 10034 4770 L 10544 4770' />
<polygon fill='black' stroke='black' points='10544,4770 10538,4773 10538,4767 10544,4770' />
<text text-anchor='start' x='9789' y='4415'>Quality Exception Event</text>

<path stroke='black' fill='none' d='M 10284 4580 L 10514 4580 C 10519 4580 10524 4585 10524 4590 L 10524 4760 C 10524 4765 10529 4770 10534 4770 L 10544 4770' />
<polygon fill='black' stroke='black' points='10544,4770 10538,4773 10538,4767 10544,4770' />
<text text-anchor='start' x='10289' y='4575'>Quality Exception Event</text>

<path stroke='black' fill='none' d='M 350 90 L 10763 90 C 10768 90 10773 95 10773 100 L 10773 4840' />
<polygon fill='black' stroke='black' points='10773,4840 10770,4834 10776,4834 10773,4840' />
<text text-anchor='start' x='355' y='85'>Business Quality Rules Data</text>

<path stroke='black' fill='none' d='M 2070 1030 L 2080 1030 C 2085 1030 2090 1035 2090 1040 L 2090 4910 C 2090 4915 2095 4920 2100 4920 L 10678 4920' />
<polygon fill='black' stroke='black' points='10678,4920 10672,4923 10672,4917 10678,4920' />
<text text-anchor='start' x='2075' y='1025'>Quality Dashboard</text>

<path stroke='black' fill='none' d='M 4284 2190 L 4354 2190 C 4359 2190 4364 2195 4364 2200 L 4364 4850 C 4364 4855 4369 4860 4374 4860 L 10678 4860' />
<polygon fill='black' stroke='black' points='10678,4860 10672,4863 10672,4857 10678,4860' />
<text text-anchor='start' x='4289' y='2185'>Quality Exception Event</text>

<path stroke='black' fill='none' d='M 5292 2510 L 5302 2510 C 5307 2510 5312 2515 5312 2520 L 5312 4890 C 5312 4895 5317 4900 5322 4900 L 10678 4900' />
<polygon fill='black' stroke='black' points='10678,4900 10672,4903 10672,4897 10678,4900' />
<text text-anchor='start' x='5297' y='2505'>Process Dashboard</text>

<path stroke='black' fill='none' d='M 5760 2710 L 5810 2710 C 5815 2710 5820 2715 5820 2720 L 5820 4850 C 5820 4855 5825 4860 5830 4860 L 10678 4860' />
<polygon fill='black' stroke='black' points='10678,4860 10672,4863 10672,4857 10678,4860' />
<text text-anchor='start' x='5765' y='2705'>Quality Exception Event</text>

<path stroke='black' fill='none' d='M 6122 2820 L 6212 2820 C 6217 2820 6222 2825 6222 2830 L 6222 4850 C 6222 4855 6227 4860 6232 4860 L 10678 4860' />
<polygon fill='black' stroke='black' points='10678,4860 10672,4863 10672,4857 10678,4860' />
<text text-anchor='start' x='6127' y='2815'>Quality Exception Event</text>

<path stroke='black' fill='none' d='M 6478 2920 L 6528 2920 C 6533 2920 6538 2925 6538 2930 L 6538 4870 C 6538 4875 6543 4880 6548 4880 L 10678 4880' />
<polygon fill='black' stroke='black' points='10678,4880 10672,4883 10672,4877 10678,4880' />
<text text-anchor='start' x='6483' y='2915'>Policy Rejected Event</text>

<path stroke='black' fill='none' d='M 6478 2920 L 10743 2920 C 10748 2920 10753 2925 10753 2930 L 10753 4840' />
<polygon fill='black' stroke='black' points='10753,4840 10750,4834 10756,4834 10753,4840' />
<text text-anchor='start' x='6483' y='2915'>Policy Rejected Event</text>

<path stroke='black' fill='none' d='M 7360 3400 L 7430 3400 C 7435 3400 7440 3405 7440 3410 L 7440 4850 C 7440 4855 7445 4860 7450 4860 L 10678 4860' />
<polygon fill='black' stroke='black' points='10678,4860 10672,4863 10672,4857 10678,4860' />
<text text-anchor='start' x='7365' y='3395'>Quality Exception Event</text>

<path stroke='black' fill='none' d='M 7624 3500 L 7714 3500 C 7719 3500 7724 3505 7724 3510 L 7724 4850 C 7724 4855 7729 4860 7734 4860 L 10678 4860' />
<polygon fill='black' stroke='black' points='10678,4860 10672,4863 10672,4857 10678,4860' />
<text text-anchor='start' x='7629' y='3495'>Quality Exception Event</text>

<path stroke='black' fill='none' d='M 7960 3640 L 8090 3640 C 8095 3640 8100 3645 8100 3650 L 8100 4850 C 8100 4855 8105 4860 8110 4860 L 10678 4860' />
<polygon fill='black' stroke='black' points='10678,4860 10672,4863 10672,4857 10678,4860' />
<text text-anchor='start' x='7965' y='3635'>Quality Exception Event</text>

<path stroke='black' fill='none' d='M 8386 3780 L 8536 3780 C 8541 3780 8546 3785 8546 3790 L 8546 4850 C 8546 4855 8551 4860 8556 4860 L 10678 4860' />
<polygon fill='black' stroke='black' points='10678,4860 10672,4863 10672,4857 10678,4860' />
<text text-anchor='start' x='8391' y='3775'>Quality Exception Event</text>

<path stroke='black' fill='none' d='M 9178 4140 L 9308 4140 C 9313 4140 9318 4145 9318 4150 L 9318 4850 C 9318 4855 9323 4860 9328 4860 L 10678 4860' />
<polygon fill='black' stroke='black' points='10678,4860 10672,4863 10672,4857 10678,4860' />
<text text-anchor='start' x='9183' y='4135'>Quality Exception Event</text>

<path stroke='black' fill='none' d='M 9784 4420 L 9994 4420 C 9999 4420 10004 4425 10004 4430 L 10004 4850 C 10004 4855 10009 4860 10014 4860 L 10678 4860' />
<polygon fill='black' stroke='black' points='10678,4860 10672,4863 10672,4857 10678,4860' />
<text text-anchor='start' x='9789' y='4415'>Quality Exception Event</text>

<path stroke='black' fill='none' d='M 10284 4580 L 10494 4580 C 10499 4580 10504 4585 10504 4590 L 10504 4850 C 10504 4855 10509 4860 10514 4860 L 10678 4860' />
<polygon fill='black' stroke='black' points='10678,4860 10672,4863 10672,4857 10678,4860' />
<text text-anchor='start' x='10289' y='4575'>Quality Exception Event</text>

<path stroke='black' fill='none' d='M 3752 1840 L 3782 1840 C 3787 1840 3792 1845 3792 1850 L 3792 5090 C 3792 5095 3797 5100 3802 5100 L 10928 5100' />
<polygon fill='black' stroke='black' points='10928,5100 10922,5103 10922,5097 10928,5100' />
<text text-anchor='start' x='3757' y='1835'>Ingress Restore Event</text>

<path stroke='black' fill='none' d='M 7624 3520 L 7694 3520 C 7699 3520 7704 3525 7704 3530 L 7704 5070 C 7704 5075 7709 5080 7714 5080 L 10928 5080' />
<polygon fill='black' stroke='black' points='10928,5080 10922,5083 10922,5077 10928,5080' />
<text text-anchor='start' x='7629' y='3515'>Successful Fields Event</text>

<path stroke='black' fill='none' d='M 350 90 L 360 90 C 365 90 370 95 370 100 L 370 5290 C 370 5295 375 5300 380 5300 L 11308 5300' />
<polygon fill='black' stroke='black' points='11308,5300 11302,5303 11302,5297 11308,5300' />
<text text-anchor='start' x='355' y='85'>Business Quality Rules Data</text>

<path stroke='black' fill='none' d='M 350 90 L 11351 90 C 11356 90 11361 95 11361 100 L 11361 5220' />
<polygon fill='black' stroke='black' points='11361,5220 11358,5214 11364,5214 11361,5220' />
<text text-anchor='start' x='355' y='85'>Business Quality Rules Data</text>

<path stroke='black' fill='none' d='M 3128 1560 L 3138 1560 C 3143 1560 3148 1565 3148 1570 L 3148 5270 C 3148 5275 3153 5280 3158 5280 L 11308 5280' />
<polygon fill='black' stroke='black' points='11308,5280 11302,5283 11302,5277 11308,5280' />
<text text-anchor='start' x='3133' y='1555'>Rejection Integration Event</text>

<path stroke='black' fill='none' d='M 3942 1940 L 4012 1940 C 4017 1940 4022 1945 4022 1950 L 4022 5230 C 4022 5235 4027 5240 4032 5240 L 11308 5240' />
<polygon fill='black' stroke='black' points='11308,5240 11302,5243 11302,5237 11308,5240' />
<text text-anchor='start' x='3947' y='1935'>Quality Assessment Data</text>

<path stroke='black' fill='none' d='M 6478 2940 L 6508 2940 C 6513 2940 6518 2945 6518 2950 L 6518 5250 C 6518 5255 6523 5260 6528 5260 L 11308 5260' />
<polygon fill='black' stroke='black' points='11308,5260 11302,5263 11302,5257 11308,5260' />
<text text-anchor='start' x='6483' y='2935'>Business Requirement Data</text>

<path stroke='black' fill='none' d='M 8786 3940 L 8956 3940 C 8961 3940 8966 3945 8966 3950 L 8966 5230 C 8966 5235 8971 5240 8976 5240 L 11308 5240' />
<polygon fill='black' stroke='black' points='11308,5240 11302,5243 11302,5237 11308,5240' />
<text text-anchor='start' x='8791' y='3935'>Quality Assessment Data</text>

<path stroke='black' fill='none' d='M 9784 4440 L 9974 4440 C 9979 4440 9984 4445 9984 4450 L 9984 5230 C 9984 5235 9989 5240 9994 5240 L 11308 5240' />
<polygon fill='black' stroke='black' points='11308,5240 11302,5243 11302,5237 11308,5240' />
<text text-anchor='start' x='9789' y='4435'>Quality Assessment Data</text>

<path stroke='black' fill='none' d='M 10284 4600 L 10474 4600 C 10479 4600 10484 4605 10484 4610 L 10484 5230 C 10484 5235 10489 5240 10494 5240 L 11308 5240' />
<polygon fill='black' stroke='black' points='11308,5240 11302,5243 11302,5237 11308,5240' />
<text text-anchor='start' x='10289' y='4595'>Quality Assessment Data</text>

<path stroke='black' fill='none' d='M 11088 5040 L 11278 5040 C 11283 5040 11288 5045 11288 5050 L 11288 5230 C 11288 5235 11293 5240 11298 5240 L 11308 5240' />
<polygon fill='black' stroke='black' points='11308,5240 11302,5243 11302,5237 11308,5240' />
<text text-anchor='start' x='11093' y='5035'>Quality Assessment Data</text>

<path stroke='black' fill='none' d='M 3942 1940 L 3992 1940 C 3997 1940 4002 1945 4002 1950 L 4002 5410 C 4002 5415 4007 5420 4012 5420 L 11474 5420' />
<polygon fill='black' stroke='black' points='11474,5420 11468,5423 11468,5417 11474,5420' />
<text text-anchor='start' x='3947' y='1935'>Quality Assessment Data</text>

<path stroke='black' fill='none' d='M 7960 3660 L 8070 3660 C 8075 3660 8080 3665 8080 3670 L 8080 5430 C 8080 5435 8085 5440 8090 5440 L 11474 5440' />
<polygon fill='black' stroke='black' points='11474,5440 11468,5443 11468,5437 11474,5440' />
<text text-anchor='start' x='7965' y='3655'>Quality Assessment Event</text>

<path stroke='black' fill='none' d='M 8386 3800 L 8516 3800 C 8521 3800 8526 3805 8526 3810 L 8526 5430 C 8526 5435 8531 5440 8536 5440 L 11474 5440' />
<polygon fill='black' stroke='black' points='11474,5440 11468,5443 11468,5437 11474,5440' />
<text text-anchor='start' x='8391' y='3795'>Quality Assessment Event</text>

<path stroke='black' fill='none' d='M 8786 3940 L 8936 3940 C 8941 3940 8946 3945 8946 3950 L 8946 5410 C 8946 5415 8951 5420 8956 5420 L 11474 5420' />
<polygon fill='black' stroke='black' points='11474,5420 11468,5423 11468,5417 11474,5420' />
<text text-anchor='start' x='8791' y='3935'>Quality Assessment Data</text>

<path stroke='black' fill='none' d='M 8786 3960 L 8916 3960 C 8921 3960 8926 3965 8926 3970 L 8926 5430 C 8926 5435 8931 5440 8936 5440 L 11474 5440' />
<polygon fill='black' stroke='black' points='11474,5440 11468,5443 11468,5437 11474,5440' />
<text text-anchor='start' x='8791' y='3955'>Quality Assessment Event</text>

<path stroke='black' fill='none' d='M 9178 4160 L 9288 4160 C 9293 4160 9298 4165 9298 4170 L 9298 5430 C 9298 5435 9303 5440 9308 5440 L 11474 5440' />
<polygon fill='black' stroke='black' points='11474,5440 11468,5443 11468,5437 11474,5440' />
<text text-anchor='start' x='9183' y='4155'>Quality Assessment Event</text>

<path stroke='black' fill='none' d='M 9784 4440 L 9954 4440 C 9959 4440 9964 4445 9964 4450 L 9964 5410 C 9964 5415 9969 5420 9974 5420 L 11474 5420' />
<polygon fill='black' stroke='black' points='11474,5420 11468,5423 11468,5417 11474,5420' />
<text text-anchor='start' x='9789' y='4435'>Quality Assessment Data</text>

<path stroke='black' fill='none' d='M 9784 4460 L 9934 4460 C 9939 4460 9944 4465 9944 4470 L 9944 5430 C 9944 5435 9949 5440 9954 5440 L 11474 5440' />
<polygon fill='black' stroke='black' points='11474,5440 11468,5443 11468,5437 11474,5440' />
<text text-anchor='start' x='9789' y='4455'>Quality Assessment Event</text>

<path stroke='black' fill='none' d='M 10284 4600 L 10454 4600 C 10459 4600 10464 4605 10464 4610 L 10464 5410 C 10464 5415 10469 5420 10474 5420 L 11474 5420' />
<polygon fill='black' stroke='black' points='11474,5420 11468,5423 11468,5417 11474,5420' />
<text text-anchor='start' x='10289' y='4595'>Quality Assessment Data</text>

<path stroke='black' fill='none' d='M 10284 4620 L 10434 4620 C 10439 4620 10444 4625 10444 4630 L 10444 5430 C 10444 5435 10449 5440 10454 5440 L 11474 5440' />
<polygon fill='black' stroke='black' points='11474,5440 11468,5443 11468,5437 11474,5440' />
<text text-anchor='start' x='10289' y='4615'>Quality Assessment Event</text>

<path stroke='black' fill='none' d='M 11088 5040 L 11258 5040 C 11263 5040 11268 5045 11268 5050 L 11268 5410 C 11268 5415 11273 5420 11278 5420 L 11474 5420' />
<polygon fill='black' stroke='black' points='11474,5420 11468,5423 11468,5417 11474,5420' />
<text text-anchor='start' x='11093' y='5035'>Quality Assessment Data</text>

<path stroke='black' fill='none' d='M 11088 5060 L 11238 5060 C 11243 5060 11248 5065 11248 5070 L 11248 5430 C 11248 5435 11253 5440 11258 5440 L 11474 5440' />
<polygon fill='black' stroke='black' points='11474,5440 11468,5443 11468,5437 11474,5440' />
<text text-anchor='start' x='11093' y='5055'>Quality Assessment Event</text>

<path stroke='black' fill='none' d='M 4284 2190 L 4334 2190 C 4339 2190 4344 2195 4344 2200 L 4344 5550 C 4344 5555 4349 5560 4354 5560 L 11670 5560' />
<polygon fill='black' stroke='black' points='11670,5560 11664,5563 11664,5557 11670,5560' />
<text text-anchor='start' x='4289' y='2185'>Quality Exception Event</text>

<path stroke='black' fill='none' d='M 5760 2710 L 5790 2710 C 5795 2710 5800 2715 5800 2720 L 5800 5550 C 5800 5555 5805 5560 5810 5560 L 11670 5560' />
<polygon fill='black' stroke='black' points='11670,5560 11664,5563 11664,5557 11670,5560' />
<text text-anchor='start' x='5765' y='2705'>Quality Exception Event</text>

<path stroke='black' fill='none' d='M 6122 2820 L 6192 2820 C 6197 2820 6202 2825 6202 2830 L 6202 5550 C 6202 5555 6207 5560 6212 5560 L 11670 5560' />
<polygon fill='black' stroke='black' points='11670,5560 11664,5563 11664,5557 11670,5560' />
<text text-anchor='start' x='6127' y='2815'>Quality Exception Event</text>

<path stroke='black' fill='none' d='M 7360 3400 L 7410 3400 C 7415 3400 7420 3405 7420 3410 L 7420 5550 C 7420 5555 7425 5560 7430 5560 L 11670 5560' />
<polygon fill='black' stroke='black' points='11670,5560 11664,5563 11664,5557 11670,5560' />
<text text-anchor='start' x='7365' y='3395'>Quality Exception Event</text>

<path stroke='black' fill='none' d='M 7624 3500 L 7674 3500 C 7679 3500 7684 3505 7684 3510 L 7684 5550 C 7684 5555 7689 5560 7694 5560 L 11670 5560' />
<polygon fill='black' stroke='black' points='11670,5560 11664,5563 11664,5557 11670,5560' />
<text text-anchor='start' x='7629' y='3495'>Quality Exception Event</text>

<path stroke='black' fill='none' d='M 7960 3640 L 8050 3640 C 8055 3640 8060 3645 8060 3650 L 8060 5550 C 8060 5555 8065 5560 8070 5560 L 11670 5560' />
<polygon fill='black' stroke='black' points='11670,5560 11664,5563 11664,5557 11670,5560' />
<text text-anchor='start' x='7965' y='3635'>Quality Exception Event</text>

<path stroke='black' fill='none' d='M 8386 3780 L 8496 3780 C 8501 3780 8506 3785 8506 3790 L 8506 5550 C 8506 5555 8511 5560 8516 5560 L 11670 5560' />
<polygon fill='black' stroke='black' points='11670,5560 11664,5563 11664,5557 11670,5560' />
<text text-anchor='start' x='8391' y='3775'>Quality Exception Event</text>

<path stroke='black' fill='none' d='M 9178 4140 L 9268 4140 C 9273 4140 9278 4145 9278 4150 L 9278 5550 C 9278 5555 9283 5560 9288 5560 L 11670 5560' />
<polygon fill='black' stroke='black' points='11670,5560 11664,5563 11664,5557 11670,5560' />
<text text-anchor='start' x='9183' y='4135'>Quality Exception Event</text>

<path stroke='black' fill='none' d='M 9784 4420 L 9914 4420 C 9919 4420 9924 4425 9924 4430 L 9924 5550 C 9924 5555 9929 5560 9934 5560 L 11670 5560' />
<polygon fill='black' stroke='black' points='11670,5560 11664,5563 11664,5557 11670,5560' />
<text text-anchor='start' x='9789' y='4415'>Quality Exception Event</text>

<path stroke='black' fill='none' d='M 10284 4580 L 10414 4580 C 10419 4580 10424 4585 10424 4590 L 10424 5550 C 10424 5555 10429 5560 10434 5560 L 11670 5560' />
<polygon fill='black' stroke='black' points='11670,5560 11664,5563 11664,5557 11670,5560' />
<text text-anchor='start' x='10289' y='4575'>Quality Exception Event</text>

<path stroke='black' fill='none' d='M 11610 5430 L 11640 5430 C 11645 5430 11650 5435 11650 5440 L 11650 5530 C 11650 5535 11655 5540 11660 5540 L 11670 5540' />
<polygon fill='black' stroke='black' points='11670,5540 11664,5543 11664,5537 11670,5540' />
<text text-anchor='start' x='11615' y='5425'>Quality Recorder Event</text>

<path stroke='black' fill='none' d='M 1312 630 L 1322 630 C 1327 630 1332 635 1332 640 L 1332 5710 C 1332 5715 1337 5720 1342 5720 L 11888 5720' />
<polygon fill='black' stroke='black' points='11888,5720 11882,5723 11882,5717 11888,5720' />
<text text-anchor='start' x='1317' y='625'>Attributes Event</text>

<path stroke='black' fill='none' d='M 3942 1940 L 3972 1940 C 3977 1940 3982 1945 3982 1950 L 3982 5650 C 3982 5655 3987 5660 3992 5660 L 11888 5660' />
<polygon fill='black' stroke='black' points='11888,5660 11882,5663 11882,5657 11888,5660' />
<text text-anchor='start' x='3947' y='1935'>Quality Assessment Data</text>

<path stroke='black' fill='none' d='M 4284 2190 L 4314 2190 C 4319 2190 4324 2195 4324 2200 L 4324 5690 C 4324 5695 4329 5700 4334 5700 L 11888 5700' />
<polygon fill='black' stroke='black' points='11888,5700 11882,5703 11882,5697 11888,5700' />
<text text-anchor='start' x='4289' y='2185'>Quality Exception Event</text>

<path stroke='black' fill='none' d='M 5760 2710 L 5770 2710 C 5775 2710 5780 2715 5780 2720 L 5780 5690 C 5780 5695 5785 5700 5790 5700 L 11888 5700' />
<polygon fill='black' stroke='black' points='11888,5700 11882,5703 11882,5697 11888,5700' />
<text text-anchor='start' x='5765' y='2705'>Quality Exception Event</text>

<path stroke='black' fill='none' d='M 6122 2820 L 6172 2820 C 6177 2820 6182 2825 6182 2830 L 6182 5690 C 6182 5695 6187 5700 6192 5700 L 11888 5700' />
<polygon fill='black' stroke='black' points='11888,5700 11882,5703 11882,5697 11888,5700' />
<text text-anchor='start' x='6127' y='2815'>Quality Exception Event</text>

<path stroke='black' fill='none' d='M 7360 3400 L 7390 3400 C 7395 3400 7400 3405 7400 3410 L 7400 5690 C 7400 5695 7405 5700 7410 5700 L 11888 5700' />
<polygon fill='black' stroke='black' points='11888,5700 11882,5703 11882,5697 11888,5700' />
<text text-anchor='start' x='7365' y='3395'>Quality Exception Event</text>

<path stroke='black' fill='none' d='M 7624 3500 L 7654 3500 C 7659 3500 7664 3505 7664 3510 L 7664 5690 C 7664 5695 7669 5700 7674 5700 L 11888 5700' />
<polygon fill='black' stroke='black' points='11888,5700 11882,5703 11882,5697 11888,5700' />
<text text-anchor='start' x='7629' y='3495'>Quality Exception Event</text>

<path stroke='black' fill='none' d='M 7960 3640 L 8010 3640 C 8015 3640 8020 3645 8020 3650 L 8020 5690 C 8020 5695 8025 5700 8030 5700 L 11888 5700' />
<polygon fill='black' stroke='black' points='11888,5700 11882,5703 11882,5697 11888,5700' />
<text text-anchor='start' x='7965' y='3635'>Quality Exception Event</text>

<path stroke='black' fill='none' d='M 7960 3660 L 8030 3660 C 8035 3660 8040 3665 8040 3670 L 8040 5670 C 8040 5675 8045 5680 8050 5680 L 11888 5680' />
<polygon fill='black' stroke='black' points='11888,5680 11882,5683 11882,5677 11888,5680' />
<text text-anchor='start' x='7965' y='3655'>Quality Assessment Event</text>

<path stroke='black' fill='none' d='M 8386 3780 L 8456 3780 C 8461 3780 8466 3785 8466 3790 L 8466 5690 C 8466 5695 8471 5700 8476 5700 L 11888 5700' />
<polygon fill='black' stroke='black' points='11888,5700 11882,5703 11882,5697 11888,5700' />
<text text-anchor='start' x='8391' y='3775'>Quality Exception Event</text>

<path stroke='black' fill='none' d='M 8386 3800 L 8476 3800 C 8481 3800 8486 3805 8486 3810 L 8486 5670 C 8486 5675 8491 5680 8496 5680 L 11888 5680' />
<polygon fill='black' stroke='black' points='11888,5680 11882,5683 11882,5677 11888,5680' />
<text text-anchor='start' x='8391' y='3795'>Quality Assessment Event</text>

<path stroke='black' fill='none' d='M 8786 3940 L 8896 3940 C 8901 3940 8906 3945 8906 3950 L 8906 5650 C 8906 5655 8911 5660 8916 5660 L 11888 5660' />
<polygon fill='black' stroke='black' points='11888,5660 11882,5663 11882,5657 11888,5660' />
<text text-anchor='start' x='8791' y='3935'>Quality Assessment Data</text>

<path stroke='black' fill='none' d='M 8786 3960 L 8876 3960 C 8881 3960 8886 3965 8886 3970 L 8886 5670 C 8886 5675 8891 5680 8896 5680 L 11888 5680' />
<polygon fill='black' stroke='black' points='11888,5680 11882,5683 11882,5677 11888,5680' />
<text text-anchor='start' x='8791' y='3955'>Quality Assessment Event</text>

<path stroke='black' fill='none' d='M 9178 4140 L 9228 4140 C 9233 4140 9238 4145 9238 4150 L 9238 5690 C 9238 5695 9243 5700 9248 5700 L 11888 5700' />
<polygon fill='black' stroke='black' points='11888,5700 11882,5703 11882,5697 11888,5700' />
<text text-anchor='start' x='9183' y='4135'>Quality Exception Event</text>

<path stroke='black' fill='none' d='M 9178 4160 L 9248 4160 C 9253 4160 9258 4165 9258 4170 L 9258 5670 C 9258 5675 9263 5680 9268 5680 L 11888 5680' />
<polygon fill='black' stroke='black' points='11888,5680 11882,5683 11882,5677 11888,5680' />
<text text-anchor='start' x='9183' y='4155'>Quality Assessment Event</text>

<path stroke='black' fill='none' d='M 9784 4440 L 9894 4440 C 9899 4440 9904 4445 9904 4450 L 9904 5650 C 9904 5655 9909 5660 9914 5660 L 11888 5660' />
<polygon fill='black' stroke='black' points='11888,5660 11882,5663 11882,5657 11888,5660' />
<text text-anchor='start' x='9789' y='4435'>Quality Assessment Data</text>

<path stroke='black' fill='none' d='M 9784 4460 L 9874 4460 C 9879 4460 9884 4465 9884 4470 L 9884 5670 C 9884 5675 9889 5680 9894 5680 L 11888 5680' />
<polygon fill='black' stroke='black' points='11888,5680 11882,5683 11882,5677 11888,5680' />
<text text-anchor='start' x='9789' y='4455'>Quality Assessment Event</text>

<path stroke='black' fill='none' d='M 9784 4420 L 9854 4420 C 9859 4420 9864 4425 9864 4430 L 9864 5690 C 9864 5695 9869 5700 9874 5700 L 11888 5700' />
<polygon fill='black' stroke='black' points='11888,5700 11882,5703 11882,5697 11888,5700' />
<text text-anchor='start' x='9789' y='4415'>Quality Exception Event</text>

<path stroke='black' fill='none' d='M 10284 4600 L 10394 4600 C 10399 4600 10404 4605 10404 4610 L 10404 5650 C 10404 5655 10409 5660 10414 5660 L 11888 5660' />
<polygon fill='black' stroke='black' points='11888,5660 11882,5663 11882,5657 11888,5660' />
<text text-anchor='start' x='10289' y='4595'>Quality Assessment Data</text>

<path stroke='black' fill='none' d='M 10284 4620 L 10374 4620 C 10379 4620 10384 4625 10384 4630 L 10384 5670 C 10384 5675 10389 5680 10394 5680 L 11888 5680' />
<polygon fill='black' stroke='black' points='11888,5680 11882,5683 11882,5677 11888,5680' />
<text text-anchor='start' x='10289' y='4615'>Quality Assessment Event</text>

<path stroke='black' fill='none' d='M 10284 4580 L 10354 4580 C 10359 4580 10364 4585 10364 4590 L 10364 5690 C 10364 5695 10369 5700 10374 5700 L 11888 5700' />
<polygon fill='black' stroke='black' points='11888,5700 11882,5703 11882,5697 11888,5700' />
<text text-anchor='start' x='10289' y='4575'>Quality Exception Event</text>

<path stroke='black' fill='none' d='M 11088 5040 L 11218 5040 C 11223 5040 11228 5045 11228 5050 L 11228 5650 C 11228 5655 11233 5660 11238 5660 L 11888 5660' />
<polygon fill='black' stroke='black' points='11888,5660 11882,5663 11882,5657 11888,5660' />
<text text-anchor='start' x='11093' y='5035'>Quality Assessment Data</text>

<path stroke='black' fill='none' d='M 11088 5060 L 11198 5060 C 11203 5060 11208 5065 11208 5070 L 11208 5670 C 11208 5675 11213 5680 11218 5680 L 11888 5680' />
<polygon fill='black' stroke='black' points='11888,5680 11882,5683 11882,5677 11888,5680' />
<text text-anchor='start' x='11093' y='5055'>Quality Assessment Event</text>

<path stroke='black' fill='none' d='M 12042 5670 L 12092 5670 C 12097 5670 12102 5675 12102 5680 L 12102 5800 C 12102 5805 12107 5810 12112 5810 L 12122 5810' />
<polygon fill='black' stroke='black' points='12122,5810 12116,5813 12116,5807 12122,5810' />
<text text-anchor='start' x='12047' y='5665'>Quality Standards Event</text>

<path stroke='black' fill='none' d='M 12042 5690 L 12072 5690 C 12077 5690 12082 5695 12082 5700 L 12082 5900 C 12082 5905 12087 5910 12092 5910 L 12304 5910' />
<polygon fill='black' stroke='black' points='12304,5910 12298,5913 12298,5907 12304,5910' />
<text text-anchor='start' x='12047' y='5685'>Technical Rules Event</text>

<path stroke='black' fill='none' d='M 12042 5710 L 12052 5710 C 12057 5710 12062 5715 12062 5720 L 12062 6000 C 12062 6005 12067 6010 12072 6010 L 12474 6010' />
<polygon fill='black' stroke='black' points='12474,6010 12468,6013 12468,6007 12474,6010' />
<text text-anchor='start' x='12047' y='5705'>Domain Vocabulary Event</text>

<path stroke='black' fill='none' d='M 2240 1130 L 2270 1130 C 2275 1130 2280 1135 2280 1140 L 2280 6130 C 2280 6135 2285 6140 2290 6140 L 12656 6140' />
<polygon fill='black' stroke='black' points='12656,6140 12650,6143 12650,6137 12656,6140' />
<text text-anchor='start' x='2245' y='1125'>Data Files Reference Event</text>

<path stroke='black' fill='none' d='M 11088 5080 L 11178 5080 C 11183 5080 11188 5085 11188 5090 L 11188 6090 C 11188 6095 11193 6100 11198 6100 L 12656 6100' />
<polygon fill='black' stroke='black' points='12656,6100 12650,6103 12650,6097 12656,6100' />
<text text-anchor='start' x='11093' y='5075'>Ingress Approved Data</text>

<path stroke='black' fill='none' d='M 11088 5100 L 11158 5100 C 11163 5100 11168 5105 11168 5110 L 11168 6110 C 11168 6115 11173 6120 11178 6120 L 12656 6120' />
<polygon fill='black' stroke='black' points='12656,6120 12650,6123 12650,6117 12656,6120' />
<text text-anchor='start' x='11093' y='5095'>Ingress Completed Event</text>

<path stroke='black' fill='none' d='M 2462 1240 L 2512 1240 C 2517 1240 2522 1245 2522 1250 L 2522 6270 C 2522 6275 2527 6280 2532 6280 L 12896 6280' />
<polygon fill='black' stroke='black' points='12896,6280 12890,6283 12890,6277 12896,6280' />
<text text-anchor='start' x='2467' y='1235'>Refresh Data Event</text>

<path stroke='black' fill='none' d='M 12756 6100 L 12866 6100 C 12871 6100 12876 6105 12876 6110 L 12876 6250 C 12876 6255 12881 6260 12886 6260 L 12896 6260' />
<polygon fill='black' stroke='black' points='12896,6260 12890,6263 12890,6257 12896,6260' />
<text text-anchor='start' x='12761' y='6095'>Stage Database Data</text>

<path stroke='black' fill='none' d='M 2462 1240 L 2492 1240 C 2497 1240 2502 1245 2502 1250 L 2502 6410 C 2502 6415 2507 6420 2512 6420 L 13072 6420' />
<polygon fill='black' stroke='black' points='13072,6420 13066,6423 13066,6417 13072,6420' />
<text text-anchor='start' x='2467' y='1235'>Refresh Data Event</text>

<path stroke='black' fill='none' d='M 3322 1640 L 3352 1640 C 3357 1640 3362 1645 3362 1650 L 3362 6390 C 3362 6395 3367 6400 3372 6400 L 13072 6400' />
<polygon fill='black' stroke='black' points='13072,6400 13066,6403 13066,6397 13072,6400' />
<text text-anchor='start' x='3327' y='1635'>Engineered Variables Event</text>

<path stroke='black' fill='none' d='M 3586 1740 L 3616 1740 C 3621 1740 3626 1745 3626 1750 L 3626 6370 C 3626 6375 3631 6380 3636 6380 L 13072 6380' />
<polygon fill='black' stroke='black' points='13072,6380 13066,6383 13066,6377 13072,6380' />
<text text-anchor='start' x='3591' y='1735'>Variable List Event</text>

<path stroke='black' fill='none' d='M 12756 6100 L 12846 6100 C 12851 6100 12856 6105 12856 6110 L 12856 6350 C 12856 6355 12861 6360 12866 6360 L 13072 6360' />
<polygon fill='black' stroke='black' points='13072,6360 13066,6363 13066,6357 13072,6360' />
<text text-anchor='start' x='12761' y='6095'>Stage Database Data</text>

<path stroke='black' fill='none' d='M 2240 1150 L 2250 1150 C 2255 1150 2260 1155 2260 1160 L 2260 6510 C 2260 6515 2265 6520 2270 6520 L 13292 6520' />
<polygon fill='black' stroke='black' points='13292,6520 13286,6523 13286,6517 13292,6520' />
<text text-anchor='start' x='2245' y='1145'>Process Event</text>

<path stroke='black' fill='none' d='M 2462 1260 L 2472 1260 C 2477 1260 2482 1265 2482 1270 L 2482 6510 C 2482 6515 2487 6520 2492 6520 L 13292 6520' />
<polygon fill='black' stroke='black' points='13292,6520 13286,6523 13286,6517 13292,6520' />
<text text-anchor='start' x='2467' y='1255'>Process Event</text>

<path stroke='black' fill='none' d='M 3322 1660 L 3332 1660 C 3337 1660 3342 1665 3342 1670 L 3342 6510 C 3342 6515 3347 6520 3352 6520 L 13292 6520' />
<polygon fill='black' stroke='black' points='13292,6520 13286,6523 13286,6517 13292,6520' />
<text text-anchor='start' x='3327' y='1655'>Process Event</text>

<path stroke='black' fill='none' d='M 3586 1760 L 3596 1760 C 3601 1760 3606 1765 3606 1770 L 3606 6510 C 3606 6515 3611 6520 3616 6520 L 13292 6520' />
<polygon fill='black' stroke='black' points='13292,6520 13286,6523 13286,6517 13292,6520' />
<text text-anchor='start' x='3591' y='1755'>Process Event</text>

<path stroke='black' fill='none' d='M 3752 1860 L 3762 1860 C 3767 1860 3772 1865 3772 1870 L 3772 6510 C 3772 6515 3777 6520 3782 6520 L 13292 6520' />
<polygon fill='black' stroke='black' points='13292,6520 13286,6523 13286,6517 13292,6520' />
<text text-anchor='start' x='3757' y='1855'>Process Event</text>

<path stroke='black' fill='none' d='M 3942 1960 L 3952 1960 C 3957 1960 3962 1965 3962 1970 L 3962 6510 C 3962 6515 3967 6520 3972 6520 L 13292 6520' />
<polygon fill='black' stroke='black' points='13292,6520 13286,6523 13286,6517 13292,6520' />
<text text-anchor='start' x='3947' y='1955'>Process Event</text>

<path stroke='black' fill='none' d='M 4118 2060 L 4148 2060 C 4153 2060 4158 2065 4158 2070 L 4158 6510 C 4158 6515 4163 6520 4168 6520 L 13292 6520' />
<polygon fill='black' stroke='black' points='13292,6520 13286,6523 13286,6517 13292,6520' />
<text text-anchor='start' x='4123' y='2055'>Process Event</text>

<path stroke='black' fill='none' d='M 4118 2040 L 4128 2040 C 4133 2040 4138 2045 4138 2050 L 4138 6750 C 4138 6755 4143 6760 4148 6760 L 13292 6760' />
<polygon fill='black' stroke='black' points='13292,6760 13286,6763 13286,6757 13292,6760' />
<text text-anchor='start' x='4123' y='2035'>Egress Completed Event</text>

<path stroke='black' fill='none' d='M 4284 2170 L 4294 2170 C 4299 2170 4304 2175 4304 2180 L 4304 6730 C 4304 6735 4309 6740 4314 6740 L 13292 6740' />
<polygon fill='black' stroke='black' points='13292,6740 13286,6743 13286,6737 13292,6740' />
<text text-anchor='start' x='4289' y='2165'>Stage Completed Event</text>

<path stroke='black' fill='none' d='M 5516 2620 L 5526 2620 C 5531 2620 5536 2625 5536 2630 L 5536 6510 C 5536 6515 5541 6520 5546 6520 L 13292 6520' />
<polygon fill='black' stroke='black' points='13292,6520 13286,6523 13286,6517 13292,6520' />
<text text-anchor='start' x='5521' y='2615'>Process Event</text>

<path stroke='black' fill='none' d='M 6122 2800 L 6132 2800 C 6137 2800 6142 2805 6142 2810 L 6142 6710 C 6142 6715 6147 6720 6152 6720 L 13292 6720' />
<polygon fill='black' stroke='black' points='13292,6720 13286,6723 13286,6717 13292,6720' />
<text text-anchor='start' x='6127' y='2795'>Transformation Integration Validation Completed Event</text>

<path stroke='black' fill='none' d='M 6122 2840 L 6152 2840 C 6157 2840 6162 2845 6162 2850 L 6162 6510 C 6162 6515 6167 6520 6172 6520 L 13292 6520' />
<polygon fill='black' stroke='black' points='13292,6520 13286,6523 13286,6517 13292,6520' />
<text text-anchor='start' x='6127' y='2835'>Process Event</text>

<path stroke='black' fill='none' d='M 6730 3100 L 6740 3100 C 6745 3100 6750 3105 6750 3110 L 6750 6510 C 6750 6515 6755 6520 6760 6520 L 13292 6520' />
<polygon fill='black' stroke='black' points='13292,6520 13286,6523 13286,6517 13292,6520' />
<text text-anchor='start' x='6735' y='3095'>Process Event</text>

<path stroke='black' fill='none' d='M 6988 3200 L 6998 3200 C 7003 3200 7008 3205 7008 3210 L 7008 6510 C 7008 6515 7013 6520 7018 6520 L 13292 6520' />
<polygon fill='black' stroke='black' points='13292,6520 13286,6523 13286,6517 13292,6520' />
<text text-anchor='start' x='6993' y='3195'>Process Event</text>

<path stroke='black' fill='none' d='M 7360 3420 L 7370 3420 C 7375 3420 7380 3425 7380 3430 L 7380 6510 C 7380 6515 7385 6520 7390 6520 L 13292 6520' />
<polygon fill='black' stroke='black' points='13292,6520 13286,6523 13286,6517 13292,6520' />
<text text-anchor='start' x='7365' y='3415'>Process Event</text>

<path stroke='black' fill='none' d='M 7624 3540 L 7634 3540 C 7639 3540 7644 3545 7644 3550 L 7644 6510 C 7644 6515 7649 6520 7654 6520 L 13292 6520' />
<polygon fill='black' stroke='black' points='13292,6520 13286,6523 13286,6517 13292,6520' />
<text text-anchor='start' x='7629' y='3535'>Process Event</text>

<path stroke='black' fill='none' d='M 7960 3680 L 7990 3680 C 7995 3680 8000 3685 8000 3690 L 8000 6510 C 8000 6515 8005 6520 8010 6520 L 13292 6520' />
<polygon fill='black' stroke='black' points='13292,6520 13286,6523 13286,6517 13292,6520' />
<text text-anchor='start' x='7965' y='3675'>Process Event</text>

<path stroke='black' fill='none' d='M 7960 3620 L 7970 3620 C 7975 3620 7980 3625 7980 3630 L 7980 6690 C 7980 6695 7985 6700 7990 6700 L 13292 6700' />
<polygon fill='black' stroke='black' points='13292,6700 13286,6703 13286,6697 13292,6700' />
<text text-anchor='start' x='7965' y='3615'>Transformation Integration Completed Event</text>

<path stroke='black' fill='none' d='M 8386 3820 L 8436 3820 C 8441 3820 8446 3825 8446 3830 L 8446 6510 C 8446 6515 8451 6520 8456 6520 L 13292 6520' />
<polygon fill='black' stroke='black' points='13292,6520 13286,6523 13286,6517 13292,6520' />
<text text-anchor='start' x='8391' y='3815'>Process Event</text>

<path stroke='black' fill='none' d='M 8386 3760 L 8416 3760 C 8421 3760 8426 3765 8426 3770 L 8426 6670 C 8426 6675 8431 6680 8436 6680 L 13292 6680' />
<polygon fill='black' stroke='black' points='13292,6680 13286,6683 13286,6677 13292,6680' />
<text text-anchor='start' x='8391' y='3755'>Transformation Data Restructure Completed Event</text>

<path stroke='black' fill='none' d='M 8786 3980 L 8856 3980 C 8861 3980 8866 3985 8866 3990 L 8866 6510 C 8866 6515 8871 6520 8876 6520 L 13292 6520' />
<polygon fill='black' stroke='black' points='13292,6520 13286,6523 13286,6517 13292,6520' />
<text text-anchor='start' x='8791' y='3975'>Process Event</text>

<path stroke='black' fill='none' d='M 8786 3920 L 8836 3920 C 8841 3920 8846 3925 8846 3930 L 8846 6650 C 8846 6655 8851 6660 8856 6660 L 13292 6660' />
<polygon fill='black' stroke='black' points='13292,6660 13286,6663 13286,6657 13292,6660' />
<text text-anchor='start' x='8791' y='3915'>Stage Data Profiling Completed Event</text>

<path stroke='black' fill='none' d='M 9178 4180 L 9208 4180 C 9213 4180 9218 4185 9218 4190 L 9218 6510 C 9218 6515 9223 6520 9228 6520 L 13292 6520' />
<polygon fill='black' stroke='black' points='13292,6520 13286,6523 13286,6517 13292,6520' />
<text text-anchor='start' x='9183' y='4175'>Process Event</text>

<path stroke='black' fill='none' d='M 9178 4100 L 9188 4100 C 9193 4100 9198 4105 9198 4110 L 9198 6630 C 9198 6635 9203 6640 9208 6640 L 13292 6640' />
<polygon fill='black' stroke='black' points='13292,6640 13286,6643 13286,6637 13292,6640' />
<text text-anchor='start' x='9183' y='4095'>Transformed Completed Event</text>

<path stroke='black' fill='none' d='M 9546 4270 L 9576 4270 C 9581 4270 9586 4275 9586 4280 L 9586 6510 C 9586 6515 9591 6520 9596 6520 L 13292 6520' />
<polygon fill='black' stroke='black' points='13292,6520 13286,6523 13286,6517 13292,6520' />
<text text-anchor='start' x='9551' y='4265'>Process Event</text>

<path stroke='black' fill='none' d='M 9784 4480 L 9834 4480 C 9839 4480 9844 4485 9844 4490 L 9844 6510 C 9844 6515 9849 6520 9854 6520 L 13292 6520' />
<polygon fill='black' stroke='black' points='13292,6520 13286,6523 13286,6517 13292,6520' />
<text text-anchor='start' x='9789' y='4475'>Process Event</text>

<path stroke='black' fill='none' d='M 9784 4400 L 9814 4400 C 9819 4400 9824 4405 9824 4410 L 9824 6610 C 9824 6615 9829 6620 9834 6620 L 13292 6620' />
<polygon fill='black' stroke='black' points='13292,6620 13286,6623 13286,6617 13292,6620' />
<text text-anchor='start' x='9789' y='4395'>Stage Domain Validation Completed Event</text>

<path stroke='black' fill='none' d='M 10284 4640 L 10334 4640 C 10339 4640 10344 4645 10344 4650 L 10344 6510 C 10344 6515 10349 6520 10354 6520 L 13292 6520' />
<polygon fill='black' stroke='black' points='13292,6520 13286,6523 13286,6517 13292,6520' />
<text text-anchor='start' x='10289' y='4635'>Process Event</text>

<path stroke='black' fill='none' d='M 10284 4660 L 10314 4660 C 10319 4660 10324 4665 10324 4670 L 10324 6590 C 10324 6595 10329 6600 10334 6600 L 13292 6600' />
<polygon fill='black' stroke='black' points='13292,6600 13286,6603 13286,6597 13292,6600' />
<text text-anchor='start' x='10289' y='4655'>Stage Business Rule Validation Completed Event</text>

<path stroke='black' fill='none' d='M 10638 4770 L 10648 4770 C 10653 4770 10658 4775 10658 4780 L 10658 6510 C 10658 6515 10663 6520 10668 6520 L 13292 6520' />
<polygon fill='black' stroke='black' points='13292,6520 13286,6523 13286,6517 13292,6520' />
<text text-anchor='start' x='10643' y='4765'>Process Event</text>

<path stroke='black' fill='none' d='M 11088 5100 L 11118 5100 C 11123 5100 11128 5105 11128 5110 L 11128 6570 C 11128 6575 11133 6580 11138 6580 L 13292 6580' />
<polygon fill='black' stroke='black' points='13292,6580 13286,6583 13286,6577 13292,6580' />
<text text-anchor='start' x='11093' y='5095'>Ingress Completed Event</text>

<path stroke='black' fill='none' d='M 11088 5120 L 11138 5120 C 11143 5120 11148 5125 11148 5130 L 11148 6510 C 11148 6515 11153 6520 11158 6520 L 13292 6520' />
<polygon fill='black' stroke='black' points='13292,6520 13286,6523 13286,6517 13292,6520' />
<text text-anchor='start' x='11093' y='5115'>Process Event</text>

<path stroke='black' fill='none' d='M 12264 5810 L 12274 5810 C 12279 5810 12284 5815 12284 5820 L 12284 6550 C 12284 6555 12289 6560 12294 6560 L 13292 6560' />
<polygon fill='black' stroke='black' points='13292,6560 13286,6563 13286,6557 13292,6560' />
<text text-anchor='start' x='12269' y='5805'>Quality Rules Event</text>

<path stroke='black' fill='none' d='M 12264 5810 L 13347 5810 C 13352 5810 13357 5815 13357 5820 L 13357 6480' />
<polygon fill='black' stroke='black' points='13357,6480 13354,6474 13360,6474 13357,6480' />
<text text-anchor='start' x='12269' y='5805'>Quality Rules Event</text>

<path stroke='black' fill='none' d='M 12434 5910 L 12444 5910 C 12449 5910 12454 5915 12454 5920 L 12454 6550 C 12454 6555 12459 6560 12464 6560 L 13292 6560' />
<polygon fill='black' stroke='black' points='13292,6560 13286,6563 13286,6557 13292,6560' />
<text text-anchor='start' x='12439' y='5905'>Quality Rules Event</text>

<path stroke='black' fill='none' d='M 12434 5910 L 13347 5910 C 13352 5910 13357 5915 13357 5920 L 13357 6480' />
<polygon fill='black' stroke='black' points='13357,6480 13354,6474 13360,6474 13357,6480' />
<text text-anchor='start' x='12439' y='5905'>Quality Rules Event</text>

<path stroke='black' fill='none' d='M 12616 6010 L 12626 6010 C 12631 6010 12636 6015 12636 6020 L 12636 6550 C 12636 6555 12641 6560 12646 6560 L 13292 6560' />
<polygon fill='black' stroke='black' points='13292,6560 13286,6563 13286,6557 13292,6560' />
<text text-anchor='start' x='12621' y='6005'>Quality Rules Event</text>

<path stroke='black' fill='none' d='M 12616 6010 L 13347 6010 C 13352 6010 13357 6015 13357 6020 L 13357 6480' />
<polygon fill='black' stroke='black' points='13357,6480 13354,6474 13360,6474 13357,6480' />
<text text-anchor='start' x='12621' y='6005'>Quality Rules Event</text>

<path stroke='black' fill='none' d='M 12756 6120 L 12826 6120 C 12831 6120 12836 6125 12836 6130 L 12836 6510 C 12836 6515 12841 6520 12846 6520 L 13292 6520' />
<polygon fill='black' stroke='black' points='13292,6520 13286,6523 13286,6517 13292,6520' />
<text text-anchor='start' x='12761' y='6115'>Process Event</text>

<path stroke='black' fill='none' d='M 12756 6140 L 12806 6140 C 12811 6140 12816 6145 12816 6150 L 12816 6530 C 12816 6535 12821 6540 12826 6540 L 13292 6540' />
<polygon fill='black' stroke='black' points='13292,6540 13286,6543 13286,6537 13292,6540' />
<text text-anchor='start' x='12761' y='6135'>Stage Data Completed Event</text>

<path stroke='black' fill='none' d='M 13032 6280 L 13042 6280 C 13047 6280 13052 6285 13052 6290 L 13052 6510 C 13052 6515 13057 6520 13062 6520 L 13292 6520' />
<polygon fill='black' stroke='black' points='13292,6520 13286,6523 13286,6517 13292,6520' />
<text text-anchor='start' x='13037' y='6275'>Process Event</text>

<path stroke='black' fill='none' d='M 13232 6410 L 13242 6410 C 13247 6410 13252 6415 13252 6420 L 13252 6510 C 13252 6515 13257 6520 13262 6520 L 13292 6520' />
<polygon fill='black' stroke='black' points='13292,6520 13286,6523 13286,6517 13292,6520' />
<text text-anchor='start' x='13237' y='6405'>Process Event</text>

<path stroke='black' fill='none' d='M 13232 6390 L 13262 6390 C 13267 6390 13272 6395 13272 6400 L 13272 6490 C 13272 6495 13277 6500 13282 6500 L 13292 6500' />
<polygon fill='black' stroke='black' points='13292,6500 13286,6503 13286,6497 13292,6500' />
<text text-anchor='start' x='13237' y='6385'>Analytics Completed Event</text>

<line x1='20' y1='1140' x2='2110' y2='1140' stroke='black' stroke-dasharray='5,5' />
<polygon fill='black' stroke='black' points='2110,1140 2104,1143 2104,1137 2110,1140' />
<text text-anchor='start' x='25' y='1135'>Data Event</text>

<line x1='20' y1='1160' x2='2110' y2='1160' stroke='black' stroke-dasharray='5,5' />
<polygon fill='black' stroke='black' points='2110,1160 2104,1163 2104,1157 2110,1160' />
<text text-anchor='start' x='25' y='1155'>External Data</text>

<line x1='20' y1='1120' x2='2110' y2='1120' stroke='black' stroke-dasharray='5,5' />
<polygon fill='black' stroke='black' points='2110,1120 2104,1123 2104,1117 2110,1120' />
<text text-anchor='start' x='25' y='1115'>Cost Explorer Data</text>

<line x1='2942' y1='1450' x2='13622' y2='1450' stroke='black' stroke-dasharray='5,5' />
<polygon fill='black' stroke='black' points='13622,1450 13616,1453 13616,1447 13622,1450' />
<text text-anchor='end' x='13617' y='1445'>Dashboard Refresh Event</text>

<line x1='13032' y1='6260' x2='13622' y2='6260' stroke='black' stroke-dasharray='5,5' />
<polygon fill='black' stroke='black' points='13622,6260 13616,6263 13616,6257 13622,6260' />
<text text-anchor='end' x='13617' y='6255'>Static Reporting Data</text>

<line x1='13232' y1='6370' x2='13622' y2='6370' stroke='black' stroke-dasharray='5,5' />
<polygon fill='black' stroke='black' points='13622,6370 13616,6373 13616,6367 13622,6370' />
<text text-anchor='end' x='13617' y='6365'>Time Series Forecast Data</text>

<line x1='10793' y1='40' x2='10793' y2='4840' stroke='black' stroke-dasharray='5,5' />
<polygon fill='black' stroke='black' points='10793,4840 10790,4834 10796,4834 10793,4840' />
<text text-anchor='middle' x='10793' y='35'>Business Requirements</text>

<line x1='11965' y1='40' x2='11965' y2='5640' stroke='black' stroke-dasharray='5,5' />
<polygon fill='black' stroke='black' points='11965,5640 11962,5634 11968,5634 11965,5640' />
<text text-anchor='middle' x='11965' y='35'>Data Owner</text>

<line x1='2175' y1='6840' x2='2175' y2='1180' stroke='black' stroke-dasharray='5,5' />
<polygon fill='black' stroke='black' points='2175,1180 2172,1186 2178,1186 2175,1180' />
<text text-anchor='middle' x='2175' y='6855'>AWS Lambda</text>

<line x1='4577' y1='6820' x2='4577' y2='2340' stroke='black' stroke-dasharray='5,5' />
<polygon fill='black' stroke='black' points='4577,2340 4574,2346 4580,2346 4577,2340' />
<text text-anchor='middle' x='4577' y='6835'>Automation</text>

<line x1='4597' y1='6840' x2='4597' y2='2340' stroke='black' stroke-dasharray='5,5' />
<polygon fill='black' stroke='black' points='4597,2340 4594,2346 4600,2346 4597,2340' />
<text text-anchor='middle' x='4597' y='6855'>Splunk</text>

<line x1='4873' y1='6820' x2='4873' y2='2440' stroke='black' stroke-dasharray='5,5' />
<polygon fill='black' stroke='black' points='4873,2440 4870,2446 4876,2446 4873,2440' />
<text text-anchor='middle' x='4873' y='6835'>Automation</text>

<line x1='4893' y1='6840' x2='4893' y2='2440' stroke='black' stroke-dasharray='5,5' />
<polygon fill='black' stroke='black' points='4893,2440 4890,2446 4896,2446 4893,2440' />
<text text-anchor='middle' x='4893' y='6855'>Splunk</text>

<line x1='5424' y1='6840' x2='5424' y2='2640' stroke='black' stroke-dasharray='5,5' />
<polygon fill='black' stroke='black' points='5424,2640 5421,2646 5427,2646 5424,2640' />
<text text-anchor='middle' x='5424' y='6855'>Automation</text>

<line x1='5668' y1='6840' x2='5668' y2='2740' stroke='black' stroke-dasharray='5,5' />
<polygon fill='black' stroke='black' points='5668,2740 5665,2746 5671,2746 5668,2740' />
<text text-anchor='middle' x='5668' y='6855'>Automation</text>

<line x1='12706' y1='6840' x2='12706' y2='6160' stroke='black' stroke-dasharray='5,5' />
<polygon fill='black' stroke='black' points='12706,6160 12703,6166 12709,6166 12706,6160' />
<text text-anchor='middle' x='12706' y='6855'>AWS Lambda</text>

<line x1='12964' y1='6840' x2='12964' y2='6300' stroke='black' stroke-dasharray='5,5' />
<polygon fill='black' stroke='black' points='12964,6300 12961,6306 12967,6306 12964,6300' />
<text text-anchor='middle' x='12964' y='6855'>AWS Lambda</text>

<line x1='13152' y1='6840' x2='13152' y2='6440' stroke='black' stroke-dasharray='5,5' />
<polygon fill='black' stroke='black' points='13152,6440 13149,6446 13155,6446 13152,6440' />
<text text-anchor='middle' x='13152' y='6855'>AWS Lambda</text>

<line x1='13347' y1='6820' x2='13347' y2='6780' stroke='black' stroke-dasharray='5,5' />
<polygon fill='black' stroke='black' points='13347,6780 13344,6786 13350,6786 13347,6780' />
<text text-anchor='middle' x='13347' y='6835'>Automation</text>

<line x1='13367' y1='6840' x2='13367' y2='6780' stroke='black' stroke-dasharray='5,5' />
<polygon fill='black' stroke='black' points='13367,6780 13364,6786 13370,6786 13367,6780' />
<text text-anchor='middle' x='13367' y='6855'>Splunk</text>

</g>
</svg>
