<?xml version="1.0" encoding="UTF-8" standalone="no"?>
<!DOCTYPE svg PUBLIC "-//W3C//DTD SVG 1.0//EN"
"http://www.w3.org/TR/2001/REC-SVG-20010904/DTD/svg10.dtd" [
<!ATTLIST svg xmlns:xlink CDATA #FIXED "http://www.w3.org/1999/xlink">
]>
<svg xmlns='http://www.w3.org/2000/svg'
xmlns:xlink='http://www.w3.org/1999/xlink'
width='550pt' height='120pt'
viewBox='0.0 0.0 550.0 120.0'
>
<style type='text/css'>
  svg {
    background-color: white;
  }
  text {
    font-family: "Helvetica Neue", Helvetica, Arial, sans-serif;
    font-size: 12px;
  }
</style>
<g>
  <rect x='216' y='40' width='130' height='60' fill='none' stroke='black' />
<text text-anchor='middle' x='281' y='70'>Technical Rules</text>

  <line x1='20' y1='70' x2='216' y2='70' stroke='black' stroke-dasharray='5,5' />
<polygon fill='black' stroke='black' points='216,70 210,73 210,67 216,70' />
<text text-anchor='start' x='25' y='65'>Technical Rules Event</text>

<line x1='346' y1='70' x2='530' y2='70' stroke='black' stroke-dasharray='5,5' />
<polygon fill='black' stroke='black' points='530,70 524,73 524,67 530,70' />
<text text-anchor='end' x='525' y='65'>Quality Rules Event</text>

</g>
</svg>
