<?xml version="1.0" encoding="UTF-8" standalone="no"?>
<!DOCTYPE svg PUBLIC "-//W3C//DTD SVG 1.0//EN"
"http://www.w3.org/TR/2001/REC-SVG-20010904/DTD/svg10.dtd" [
<!ATTLIST svg xmlns:xlink CDATA #FIXED "http://www.w3.org/1999/xlink">
]>
<svg xmlns='http://www.w3.org/2000/svg'
xmlns:xlink='http://www.w3.org/1999/xlink'
width='658pt' height='120pt'
viewBox='0.0 0.0 658.0 120.0'
>
<style type='text/css'>
  svg {
    background-color: white;
  }
  text {
    font-family: "Helvetica Neue", Helvetica, Arial, sans-serif;
    font-size: 12px;
  }
</style>
<g>
  <rect x='300' y='40' width='178' height='60' fill='none' stroke='black' />
<text text-anchor='middle' x='389' y='70'>Ingress File Type Check</text>

  <line x1='20' y1='70' x2='300' y2='70' stroke='black' stroke-dasharray='5,5' />
<polygon fill='black' stroke='black' points='300,70 294,73 294,67 300,70' />
<text text-anchor='start' x='25' y='65'>Ingress Classification Failed Event</text>

<line x1='478' y1='80' x2='638' y2='80' stroke='black' stroke-dasharray='5,5' />
<polygon fill='black' stroke='black' points='638,80 632,83 632,77 638,80' />
<text text-anchor='end' x='633' y='75'>Process Event</text>

<line x1='478' y1='60' x2='638' y2='60' stroke='black' stroke-dasharray='5,5' />
<polygon fill='black' stroke='black' points='638,60 632,63 632,57 638,60' />
<text text-anchor='end' x='633' y='55'>File Type Event</text>

</g>
</svg>
