<?xml version="1.0" encoding="UTF-8" standalone="no"?>
<!DOCTYPE svg PUBLIC "-//W3C//DTD SVG 1.0//EN"
"http://www.w3.org/TR/2001/REC-SVG-20010904/DTD/svg10.dtd" [
<!ATTLIST svg xmlns:xlink CDATA #FIXED "http://www.w3.org/1999/xlink">
]>
<svg xmlns='http://www.w3.org/2000/svg'
xmlns:xlink='http://www.w3.org/1999/xlink'
width='598pt' height='120pt'
viewBox='0.0 0.0 598.0 120.0'
>
<style type='text/css'>
  svg {
    background-color: white;
  }
  text {
    font-family: "Helvetica Neue", Helvetica, Arial, sans-serif;
    font-size: 12px;
  }
</style>
<g>
  <rect x='198' y='40' width='154' height='60' fill='none' stroke='black' />
<text text-anchor='middle' x='275' y='70'>Feature Engineering</text>

  <line x1='20' y1='70' x2='198' y2='70' stroke='black' />
<polygon fill='black' stroke='black' points='198,70 192,73 192,67 198,70' />
<text text-anchor='start' x='25' y='65'>Refresh Data Event</text>

<line x1='352' y1='80' x2='578' y2='80' stroke='black' stroke-dasharray='5,5' />
<polygon fill='black' stroke='black' points='578,80 572,83 572,77 578,80' />
<text text-anchor='end' x='573' y='75'>Process Event</text>

<line x1='352' y1='60' x2='578' y2='60' stroke='black' stroke-dasharray='5,5' />
<polygon fill='black' stroke='black' points='578,60 572,63 572,57 578,60' />
<text text-anchor='end' x='573' y='55'>Engineered Variables Event</text>

</g>
</svg>
