<?xml version="1.0" encoding="UTF-8" standalone="no"?>
<!DOCTYPE svg PUBLIC "-//W3C//DTD SVG 1.0//EN"
"http://www.w3.org/TR/2001/REC-SVG-20010904/DTD/svg10.dtd" [
<!ATTLIST svg xmlns:xlink CDATA #FIXED "http://www.w3.org/1999/xlink">
]>
<svg xmlns='http://www.w3.org/2000/svg'
xmlns:xlink='http://www.w3.org/1999/xlink'
width='676pt' height='180pt'
viewBox='0.0 0.0 676.0 180.0'
>
<style type='text/css'>
  svg {
    background-color: white;
  }
  text {
    font-family: "Helvetica Neue", Helvetica, Arial, sans-serif;
    font-size: 12px;
  }
</style>
<g>
  <rect x='264' y='40' width='184' height='60' fill='none' stroke='black' />
<text text-anchor='middle' x='356' y='70'>Metadata Raised Incident</text>

  <line x1='20' y1='70' x2='264' y2='70' stroke='black' stroke-dasharray='5,5' />
<polygon fill='black' stroke='black' points='264,70 258,73 258,67 264,70' />
<text text-anchor='start' x='25' y='65'>Metadata Raise Incident Event</text>

<line x1='448' y1='70' x2='656' y2='70' stroke='black' stroke-dasharray='5,5' />
<polygon fill='black' stroke='black' points='656,70 650,73 650,67 656,70' />
<text text-anchor='end' x='651' y='65'>Quality Exception Event</text>

<line x1='356' y1='140' x2='356' y2='100' stroke='black' stroke-dasharray='5,5' />
<polygon fill='black' stroke='black' points='356,100 353,106 359,106 356,100' />
<text text-anchor='middle' x='356' y='155'>Automation</text>

</g>
</svg>
